111-1/1013/HW2_1_N_square_add/simulation/qsim/HW2.msim.vcd
$comment
	File created using the following command:
		vcd file HW2.msim.vcd -direction
$end
$date
	Thu Oct 13 15:27:08 2022
$end
$version
	ModelSim Version 10.1d
$end
$timescale
	1ps
$end
$scope module HW2_vlg_vec_tst $end
$var reg 1 ! CLK $end
$var reg 1 " EN $end
$var reg 4 # Order [3:0] $end
$var reg 1 $ RST $end
$var wire 1 % Sum [10] $end
$var wire 1 & Sum [9] $end
$var wire 1 ' Sum [8] $end
$var wire 1 ( Sum [7] $end
$var wire 1 ) Sum [6] $end
$var wire 1 * Sum [5] $end
$var wire 1 + Sum [4] $end
$var wire 1 , Sum [3] $end
$var wire 1 - Sum [2] $end
$var wire 1 . Sum [1] $end
$var wire 1 / Sum [0] $end
$var wire 1 0 Valid $end
$var wire 1 1 temp [10] $end
$var wire 1 2 temp [9] $end
$var wire 1 3 temp [8] $end
$var wire 1 4 temp [7] $end
$var wire 1 5 temp [6] $end
$var wire 1 6 temp [5] $end
$var wire 1 7 temp [4] $end
$var wire 1 8 temp [3] $end
$var wire 1 9 temp [2] $end
$var wire 1 : temp [1] $end
$var wire 1 ; temp [0] $end
$var wire 1 < sampler $end
$scope module i1 $end
$var wire 1 = gnd $end
$var wire 1 > vcc $end
$var wire 1 ? unknown $end
$var tri1 1 @ devclrn $end
$var tri1 1 A devpor $end
$var tri1 1 B devoe $end
$var wire 1 C Mult0|auto_generated|op_1~3 $end
$var wire 1 D Mult0|auto_generated|op_3~7 $end
$var wire 1 E Mult0|auto_generated|op_1~4_combout $end
$var wire 1 F Mult0|auto_generated|op_1~5 $end
$var wire 1 G Mult0|auto_generated|op_3~8_combout $end
$var wire 1 H Mult0|auto_generated|op_3~9 $end
$var wire 1 I Mult0|auto_generated|op_1~6_combout $end
$var wire 1 J Mult0|auto_generated|op_1~7 $end
$var wire 1 K Mult0|auto_generated|op_3~10_combout $end
$var wire 1 L Mult0|auto_generated|op_3~11 $end
$var wire 1 M Mult0|auto_generated|op_1~8_combout $end
$var wire 1 N Mult0|auto_generated|op_1~9 $end
$var wire 1 O Mult0|auto_generated|op_3~12_combout $end
$var wire 1 P Mult0|auto_generated|op_3~13 $end
$var wire 1 Q Mult0|auto_generated|op_1~10_combout $end
$var wire 1 R Mult0|auto_generated|op_3~14_combout $end
$var wire 1 S Selector2~1_combout $end
$var wire 1 T Order[1]~input_o $end
$var wire 1 U Valid~output_o $end
$var wire 1 V Sum[0]~output_o $end
$var wire 1 W Sum[1]~output_o $end
$var wire 1 X Sum[2]~output_o $end
$var wire 1 Y Sum[3]~output_o $end
$var wire 1 Z Sum[4]~output_o $end
$var wire 1 [ Sum[5]~output_o $end
$var wire 1 \ Sum[6]~output_o $end
$var wire 1 ] Sum[7]~output_o $end
$var wire 1 ^ Sum[8]~output_o $end
$var wire 1 _ Sum[9]~output_o $end
$var wire 1 ` Sum[10]~output_o $end
$var wire 1 a temp[0]~output_o $end
$var wire 1 b temp[1]~output_o $end
$var wire 1 c temp[2]~output_o $end
$var wire 1 d temp[3]~output_o $end
$var wire 1 e temp[4]~output_o $end
$var wire 1 f temp[5]~output_o $end
$var wire 1 g temp[6]~output_o $end
$var wire 1 h temp[7]~output_o $end
$var wire 1 i temp[8]~output_o $end
$var wire 1 j temp[9]~output_o $end
$var wire 1 k temp[10]~output_o $end
$var wire 1 l CLK~input_o $end
$var wire 1 m CLK~inputclkctrl_outclk $end
$var wire 1 n EN~input_o $end
$var wire 1 o Selector0~0_combout $end
$var wire 1 p counter[0]~0_combout $end
$var wire 1 q Order[2]~input_o $end
$var wire 1 r Order[0]~input_o $end
$var wire 1 s always1~0_combout $end
$var wire 1 t always1~1_combout $end
$var wire 1 u Order[3]~input_o $end
$var wire 1 v counter[2]~2_combout $end
$var wire 1 w counter[3]~3_combout $end
$var wire 1 x counter[3]~4_combout $end
$var wire 1 y always1~2_combout $end
$var wire 1 z counter[1]~1_combout $end
$var wire 1 { Selector2~0_combout $end
$var wire 1 | Selector0~1_combout $end
$var wire 1 } RST~input_o $end
$var wire 1 ~ RST~inputclkctrl_outclk $end
$var wire 1 !! State.IN~q $end
$var wire 1 "! Selector2~2_combout $end
$var wire 1 #! State.OUT~q $end
$var wire 1 $! temp[0]~11_combout $end
$var wire 1 %! temp[0]~reg0_q $end
$var wire 1 &! Sum~0_combout $end
$var wire 1 '! temp[0]~12 $end
$var wire 1 (! temp[1]~13_combout $end
$var wire 1 )! temp[1]~reg0_q $end
$var wire 1 *! Sum~1_combout $end
$var wire 1 +! Mult0|auto_generated|op_1~0_combout $end
$var wire 1 ,! Mult0|auto_generated|op_3~1_cout $end
$var wire 1 -! Mult0|auto_generated|op_3~3_cout $end
$var wire 1 .! Mult0|auto_generated|op_3~4_combout $end
$var wire 1 /! temp[1]~14 $end
$var wire 1 0! temp[2]~15_combout $end
$var wire 1 1! temp[2]~reg0_q $end
$var wire 1 2! Sum~2_combout $end
$var wire 1 3! Mult0|auto_generated|op_1~1 $end
$var wire 1 4! Mult0|auto_generated|op_1~2_combout $end
$var wire 1 5! Mult0|auto_generated|op_3~5 $end
$var wire 1 6! Mult0|auto_generated|op_3~6_combout $end
$var wire 1 7! temp[2]~16 $end
$var wire 1 8! temp[3]~17_combout $end
$var wire 1 9! temp[3]~reg0_q $end
$var wire 1 :! Sum~3_combout $end
$var wire 1 ;! temp[3]~18 $end
$var wire 1 <! temp[4]~19_combout $end
$var wire 1 =! temp[4]~reg0_q $end
$var wire 1 >! Sum~4_combout $end
$var wire 1 ?! temp[4]~20 $end
$var wire 1 @! temp[5]~21_combout $end
$var wire 1 A! temp[5]~reg0_q $end
$var wire 1 B! Sum~5_combout $end
$var wire 1 C! temp[5]~22 $end
$var wire 1 D! temp[6]~23_combout $end
$var wire 1 E! temp[6]~reg0_q $end
$var wire 1 F! Sum~6_combout $end
$var wire 1 G! temp[6]~24 $end
$var wire 1 H! temp[7]~25_combout $end
$var wire 1 I! temp[7]~reg0_q $end
$var wire 1 J! Sum~7_combout $end
$var wire 1 K! temp[7]~26 $end
$var wire 1 L! temp[8]~27_combout $end
$var wire 1 M! temp[8]~reg0_q $end
$var wire 1 N! Sum~8_combout $end
$var wire 1 O! temp[8]~28 $end
$var wire 1 P! temp[9]~29_combout $end
$var wire 1 Q! temp[9]~reg0_q $end
$var wire 1 R! Sum~9_combout $end
$var wire 1 S! temp[9]~30 $end
$var wire 1 T! temp[10]~31_combout $end
$var wire 1 U! temp[10]~reg0_q $end
$var wire 1 V! Sum~10_combout $end
$var wire 1 W! Mult0|auto_generated|le5a [4] $end
$var wire 1 X! Mult0|auto_generated|le5a [3] $end
$var wire 1 Y! Mult0|auto_generated|le5a [2] $end
$var wire 1 Z! Mult0|auto_generated|le5a [1] $end
$var wire 1 [! Mult0|auto_generated|le5a [0] $end
$var wire 1 \! Mult0|auto_generated|le3a [5] $end
$var wire 1 ]! Mult0|auto_generated|le3a [4] $end
$var wire 1 ^! Mult0|auto_generated|le3a [3] $end
$var wire 1 _! Mult0|auto_generated|le3a [2] $end
$var wire 1 `! Mult0|auto_generated|le3a [1] $end
$var wire 1 a! Mult0|auto_generated|le3a [0] $end
$var wire 1 b! Mult0|auto_generated|le4a [5] $end
$var wire 1 c! Mult0|auto_generated|le4a [4] $end
$var wire 1 d! Mult0|auto_generated|le4a [3] $end
$var wire 1 e! Mult0|auto_generated|le4a [2] $end
$var wire 1 f! Mult0|auto_generated|le4a [1] $end
$var wire 1 g! Mult0|auto_generated|le4a [0] $end
$var wire 1 h! counter [3] $end
$var wire 1 i! counter [2] $end
$var wire 1 j! counter [1] $end
$var wire 1 k! counter [0] $end
$upscope $end
$upscope $end
$enddefinitions $end
#0
$dumpvars
0!
0"
b1111 #
1$
0/
0.
0-
0,
0+
0*
0)
0(
0'
0&
0%
00
0;
0:
09
08
07
06
05
04
03
02
01
x<
0=
1>
x?
1@
1A
1B
1C
1D
0E
0F
0G
0H
0I
1J
0K
1L
0M
0N
0O
0P
1Q
0R
0S
1T
0U
0V
0W
0X
0Y
0Z
0[
0\
0]
0^
0_
0`
0a
0b
0c
0d
0e
0f
0g
0h
0i
0j
0k
0l
0m
0n
1o
0p
1q
1r
1s
1t
1u
0v
0w
0x
0y
0z
0{
0|
1}
1~
0!!
0"!
0#!
0$!
0%!
0&!
0'!
0(!
0)!
0*!
0+!
0,!
1-!
0.!
1/!
00!
01!
02!
03!
04!
05!
06!
07!
08!
09!
0:!
1;!
0<!
0=!
0>!
0?!
0@!
0A!
0B!
1C!
0D!
0E!
0F!
0G!
0H!
0I!
0J!
1K!
0L!
0M!
0N!
0O!
0P!
0Q!
0R!
1S!
0T!
0U!
0V!
0[!
0Z!
0Y!
0X!
zW!
0a!
0`!
0_!
0^!
0]!
0\!
0g!
0f!
0e!
0d!
0c!
0b!
0k!
0j!
0i!
0h!
$end
#10000
1!
1l
1m
0<
#20000
1"
0$
0!
1n
0}
0l
0~
0m
1<
0o
1y
1|
1p
#30000
1!
1l
1m
0<
1!!
1k!
1$!
1z
0p
1a!
#40000
0!
0l
0m
1<
#50000
0"
1!
0n
1l
1m
0<
1j!
0k!
1%!
1,!
1`!
1\!
1]!
1f!
1^!
1p
1a
1;
0-!
1R
1O
1K
1E
16!
14!
1.!
1H!
1D!
1@!
1G
18!
0D
06!
10!
1<!
1H
0G
08!
0L
0K
0<!
1P
0O
0@!
0R
0D!
0H!
#60000
0!
0l
0m
1<
#70000
1!
1l
1m
0<
1k!
11!
0`!
1_!
1'!
0$!
1{
0z
1v
0p
0a!
1g!
17!
00!
1c
19
1-!
1+!
1(!
0,!
15!
0.!
18!
16!
07!
10!
#80000
0!
0l
0m
1<
#90000
1!
1l
1m
0<
0j!
1i!
0k!
19!
1)!
0%!
0_!
0{
0\!
1e!
0]!
0f!
0^!
0g!
0'!
1p
0;!
08!
0/!
0(!
1d
1b
0a
18
1:
0;
0+!
1R
0P
1O
1L
1K
06!
04!
05!
1.!
1/!
1(!
1<!
17!
00!
0.!
1H!
0R
1D!
0O
1@!
1D
07!
10!
0H!
0D!
0H
1G
1;!
18!
0K
1?!
0<!
0?!
1<!
0@!
#100000
0!
0l
0m
1<
#110000
1!
1l
1m
0<
1k!
1=!
1_!
1$!
1z
0p
1a!
1g!
1?!
0<!
1e
17
1+!
1.!
1@!
15!
0.!
17!
00!
16!
07!
10!
0;!
08!
1<!
#120000
0!
0l
0m
1<
#130000
1!
1l
1m
0<
1j!
0k!
1A!
09!
1%!
1,!
1`!
0_!
1\!
1Y!
1c!
1Z!
0e!
1]!
1f!
1b!
1p
0C!
0@!
1;!
18!
1f
0d
1a
16
08
1;
0-!
1R
1O
1K
1N
1I
0D
06!
0Q
1D!
0<!
1.!
1H!
1G!
0D!
1@!
1Q
0L
0K
1H
0G
08!
0R
17!
00!
1R
1P
0O
0@!
1K
0?!
1<!
18!
0K!
0H!
0R
0G!
1D!
1L!
1K!
0L!
#140000
0!
0l
0m
1<
#150000
1!
1l
1m
0<
1k!
1E!
0A!
19!
01!
0`!
1'!
0$!
1{
0z
1w
0v
0p
1[!
0f!
1^!
0a!
1G!
0D!
1C!
1@!
0;!
08!
07!
10!
1g
0f
1d
0c
15
06
18
09
1-!
0/!
0(!
1x
1G
1D
16!
14!
0,!
1H!
0G!
1D!
1?!
0<!
1;!
18!
0.!
17!
00!
0G
0;!
08!
0D
06!
0H!
0C!
0@!
07!
10!
1G
1G!
0D!
1;!
18!
1<!
1H!
0<!
#160000
0!
0l
0m
1<
#170000
1!
1l
1m
0<
0j!
1h!
0i!
0k!
1I!
0E!
0=!
11!
0)!
0%!
0{
0w
0\!
0Y!
0c!
0Z!
1d!
0[!
1e!
0]!
1f!
0^!
0x
1X!
0'!
1p
0K!
0H!
0G!
1D!
0?!
1<!
17!
00!
1/!
1(!
1h
0g
0e
1c
0b
0a
14
05
07
19
0:
0;
1x
1R
0P
1O
0K
0N
0G
16!
04!
0Q
0(!
1L!
1K!
1H!
1C!
1@!
0;!
08!
07!
10!
0K!
0H!
0@!
1Q
06!
0L!
1L!
0R
1;!
18!
1K!
1H!
0<!
0L!
#180000
0!
0l
0m
1<
#190000
1!
1l
1m
0<
1k!
1E!
1$!
1z
0p
1[!
0f!
1^!
1a!
1G!
0D!
1g
15
1G
1D
16!
14!
0K!
0H!
1<!
0G
0;!
08!
0D
06!
1L!
1G
1;!
18!
#200000
0!
0l
0m
1<
#210000
1!
1l
1m
0<
1j!
0k!
1M!
0I!
0E!
1=!
1%!
1,!
1`!
1\!
1c!
1Z!
0d!
0[!
1p
1O!
0L!
1K!
1H!
0G!
1D!
1?!
0<!
1i
0h
0g
1e
1a
13
04
05
17
1;
0-!
1R
1P
0O
1K
1M
0G
1P!
0O!
1L!
0H!
1@!
1.!
1H!
0R
0D!
0C!
0@!
1O
0?!
1<!
0P!
17!
00!
0H!
1G!
1C!
1@!
0;!
08!
1H!
0G!
1D!
1?!
0<!
0H!
0C!
0@!
1G!
0D!
1H!
#220000
0!
0l
0m
1<
#230000
1!
1l
1m
0<
1k!
1I!
0=!
09!
01!
0`!
1_!
1'!
0$!
1{
0z
1v
0p
1[!
1]!
0^!
0a!
0g!
0K!
0H!
0?!
1<!
1;!
18!
07!
10!
1h
0e
0d
0c
14
07
08
09
1-!
13!
0+!
1(!
1G
1F
0E
04!
0,!
0.!
1O!
0L!
1C!
1@!
0<!
08!
05!
14!
1<!
0J
0I
0G
1D
16!
00!
1P!
0G!
1D!
1N
0M
0K
0<!
0H
1G
18!
1K!
1H!
0Q
0O
0@!
1L
1K
1<!
0O!
1L!
1R
0D!
0P
1O
1@!
0P!
0K!
0H!
0R
1D!
1O!
0L!
1K!
1H!
1P!
0O!
1L!
0P!
#240000
0!
0l
0m
1<
#250000
1!
1l
1m
0<
0j!
1i!
0k!
1E!
1A!
1=!
19!
1)!
0%!
0_!
0{
0\!
1Y!
0Z!
0[!
0e!
0]!
1f!
1g!
1S
0'!
1p
1G!
0D!
0C!
0@!
1?!
0<!
0;!
08!
0/!
0(!
1g
1f
1e
1d
1b
0a
15
16
17
18
1:
0;
03!
1+!
1R
0O
0K
1M
1J
1I
0G
0F
0D
06!
1.!
1/!
1(!
0K!
0H!
1D!
1@!
1<!
10!
04!
15!
0.!
1H!
0D!
0@!
1O
0M
1K
0<!
0I
1G
1;!
18!
1O!
0L!
00!
1D!
0O
1@!
0K
1P!
0D!
0@!
#260000
0!
0l
0m
1<
#270000
1!
1l
1m
0<
1k!
1Q!
0M!
0E!
0A!
0=!
1_!
1$!
1z
0p
1[!
1^!
1a!
0g!
0S!
0P!
0O!
1L!
0G!
1D!
1C!
1@!
0?!
1<!
1j
0i
0g
0f
0e
12
03
05
06
07
13!
0+!
1H
0G
14!
05!
1.!
1T!
1S!
1P!
0H!
0D!
0@!
0C
04!
0.!
1K
0<!
10!
0T!
1E
1D
16!
00!
1@!
0;!
08!
1<!
#280000
0!
0l
0m
1<
#290000
1!
1l
1m
0<
1j!
0k!
1M!
0I!
1A!
1=!
09!
1%!
1,!
1`!
0_!
1\!
0c!
1Z!
0[!
0f!
0^!
0b!
1p
1O!
0L!
1K!
1H!
0C!
0@!
1?!
0<!
1;!
18!
1i
0h
1f
1e
0d
1a
13
04
16
17
08
1;
0-!
03!
0R
1O
0L
0K
0N
1M
1I
0H
1G
06!
1C
14!
1Q
0S!
0P!
0O!
1L!
1D!
1@!
0?!
1<!
1.!
04!
0H!
1G!
0D!
1P
1C!
0Q
1?!
0<!
08!
0E
16!
1R
1T!
1S!
1P!
10!
06!
0K!
0G!
1D!
0C!
0@!
0G
18!
0T!
08!
1O!
0L!
1K!
1H!
1G!
0D!
0?!
1<!
0S!
0P!
0O!
1L!
0K!
0H!
1C!
1@!
1T!
1S!
1P!
1O!
0L!
0G!
1D!
0T!
0S!
0P!
1K!
1H!
1T!
0O!
1L!
1S!
1P!
0T!
#300000
0!
0l
0m
1<
#310000
1!
1l
1m
0<
1k!
1I!
1E!
11!
0`!
1'!
0$!
1{
0z
1w
0v
0p
1[!
1]!
0a!
0K!
0H!
1G!
0D!
17!
00!
1h
1g
1c
14
15
19
1-!
0/!
0(!
1"!
0x
1G
1E
0,!
1O!
0L!
1H!
18!
0.!
10!
1?!
0<!
1H
0G
0S!
0P!
00!
0C!
0@!
1K
0?!
1<!
1T!
1D!
#320000
0!
0l
0m
1<
#330000
1!
1l
1m
0<
0j!
0h!
0i!
0k!
1U!
0Q!
0M!
0A!
19!
01!
0)!
0%!
1#!
0{
0w
0\!
0Y!
0Z!
0[!
0]!
1x
0X!
0S
0'!
1p
0T!
1S!
1P!
0O!
1L!
1C!
1@!
0;!
08!
07!
10!
1/!
1(!
1k
0j
0i
0f
1d
0c
0b
0a
1U
11
02
03
06
18
09
0:
0;
10
1V!
1:!
1J!
1F!
1>!
0"!
0|
0x
0R
0O
0K
0M
0I
0H
1G
0E
1Q
0(!
1T!
0P!
0D!
1?!
0<!
1;!
18!
00!
1`
1Y
1]
1\
1Z
1%
1,
1(
1)
1+
0H!
0G!
1D!
0P
1O
1L
0G
1R
0R
1G!
0D!
0O
0?!
1<!
0G!
1D!
0@!
1K!
1H!
0L!
#340000
0!
0l
0m
1<
#350000
1!
1l
1m
0<
0!!
1k!
0#!
1o
1$!
1z
0p
1a!
1|
0U
00
0V!
0J!
0F!
0>!
0:!
0|
0`
0]
0\
0Z
0Y
0%
0(
0)
0+
0,
#360000
0!
0l
0m
1<
#370000
1!
1l
1m
0<
1j!
0k!
1%!
1,!
1`!
1\!
1]!
1f!
1^!
1p
1a
1;
0-!
1R
1O
1K
1E
16!
14!
1.!
0K!
0H!
1G!
0D!
1@!
1G
0;!
08!
0D
06!
10!
1L!
1H!
1?!
1H
0G
1;!
18!
0C!
0@!
0L
0K
0?!
1D!
1P
0O
1C!
0R
0G!
1K!
0L!
#380000
0!
0l
0m
1<
#390000
1!
1l
1m
0<
1k!
11!
0`!
1_!
1'!
0$!
1{
0z
1v
0p
0a!
1g!
17!
00!
1c
19
1-!
1+!
1(!
0,!
15!
0.!
0;!
08!
16!
07!
10!
1?!
0<!
1@!
#400000
0!
0l
0m
1<
#410000
1!
1l
1m
0<
0j!
1i!
0k!
1A!
0=!
09!
1)!
0%!
0_!
0{
0\!
1e!
0]!
0f!
0^!
0g!
0'!
1p
0C!
0@!
0?!
1<!
1;!
18!
0/!
0(!
1f
0e
0d
1b
0a
16
07
08
1:
0;
0+!
1R
0P
1O
1L
1K
06!
04!
05!
1.!
1/!
1(!
1G!
0D!
1C!
1@!
0<!
17!
00!
0.!
0K!
0R
0O
0C!
0@!
1D
07!
10!
1L!
0H!
0H
1G
08!
0K
1<!
1C!
1@!
0G!
1D!
1K!
1H!
0L!
#420000
0!
0l
0m
1<
#430000
1!
1l
1m
0<
1k!
1=!
1_!
1$!
1z
0p
1a!
1g!
1?!
0<!
1e
17
1+!
1.!
0C!
0@!
15!
0.!
17!
00!
1G!
0D!
16!
07!
10!
18!
0K!
0H!
1L!
#440000
0!
0l
0m
1<
#450000
1!
1l
1m
0<
1j!
0k!
1M!
0I!
0E!
0A!
0=!
19!
1%!
1,!
1`!
0_!
1\!
1Y!
1c!
1Z!
0e!
1]!
1f!
1b!
1p
1O!
0L!
1K!
1H!
0G!
1D!
1C!
1@!
0?!
1<!
0;!
08!
1i
0h
0g
0f
0e
1d
1a
13
04
05
06
07
18
1;
0-!
1R
1O
1K
1N
1I
0D
06!
0Q
1P!
0O!
1L!
0H!
0D!
0@!
1?!
0<!
1.!
1H!
1D!
0C!
1Q
0L
0K
1H
0G
1;!
18!
0R
0P!
17!
00!
1G!
0D!
1R
1P
0O
1C!
1@!
1K
0?!
0H!
0;!
08!
0K!
0R
0G!
1<!
1O!
0L!
1K!
1P!
0O!
1L!
0P!
#460000
0!
0l
0m
1<
#470000
1!
1l
1m
0<
1k!
1A!
1=!
09!
01!
0`!
1'!
0$!
1{
0z
1w
0v
0p
1[!
0f!
1^!
0a!
0C!
0@!
1?!
0<!
1;!
18!
07!
10!
1f
1e
0d
0c
16
17
08
09
1-!
0/!
0(!
1x
1G
1D
16!
14!
0,!
1D!
1@!
0?!
1<!
08!
0.!
17!
00!
1?!
0<!
0G
18!
0D
06!
0@!
07!
10!
1@!
0?!
1<!
1G
08!
0@!
1?!
0<!
1@!
#480000
0!
0l
0m
1<
#490000
1!
1l
1m
0<
0j!
1h!
0i!
0k!
1E!
0=!
11!
0)!
0%!
0{
0w
0\!
0Y!
0c!
0Z!
1d!
0[!
1e!
0]!
1f!
0^!
0x
1X!
0'!
1p
1G!
0D!
0?!
1<!
17!
00!
1/!
1(!
1g
0e
1c
0b
0a
15
07
19
0:
0;
1x
1R
0P
1O
0K
0N
0G
16!
04!
0Q
0(!
1H!
0@!
18!
07!
10!
0K!
0H!
1D!
1C!
1@!
1Q
0<!
06!
1O!
0L!
0D!
0R
08!
1P!
1K!
1H!
0O!
1L!
0P!
#500000
0!
0l
0m
1<
#510000
1!
1l
1m
0<
1k!
1I!
0E!
1$!
1z
0p
1[!
0f!
1^!
1a!
0K!
0H!
0G!
1D!
1h
0g
14
05
1G
1D
16!
14!
1O!
0L!
1K!
1H!
1<!
0G
18!
0D
06!
1P!
0O!
1L!
0<!
1G
08!
0P!
1<!
#520000
0!
0l
0m
1<
#530000
1!
1l
1m
0<
1j!
0k!
1E!
1=!
1%!
1,!
1`!
1\!
1c!
1Z!
0d!
0[!
1p
1G!
0D!
1?!
0<!
1g
1e
1a
15
17
1;
0-!
1R
1P
0O
1K
1M
0G
0K!
0H!
0C!
0@!
1.!
1H!
0R
1@!
1O
0?!
1<!
1O!
0L!
17!
00!
0H!
1D!
0@!
1P!
18!
#540000
0!
0l
0m
1<
#550000
1!
1l
1m
0<
1k!
1Q!
0M!
0I!
0A!
19!
01!
0`!
1_!
1'!
0$!
1{
0z
1v
0p
1[!
1]!
0^!
0a!
0g!
0S!
0P!
0O!
1L!
1K!
1H!
1C!
1@!
0;!
08!
07!
10!
1j
0i
0h
0f
1d
0c
12
03
04
06
18
09
1-!
13!
0+!
1(!
1G
1F
0E
04!
0,!
0.!
0T!
1S!
1P!
0L!
0D!
1?!
0<!
1;!
18!
05!
14!
0J
0I
0G
1D
16!
00!
1T!
0C!
0@!
1N
0M
0K
0?!
1<!
0H
1G
0;!
08!
1D!
0Q
0O
1C!
1L
1K
1?!
1R
0G!
0P
1O
0C!
0R
1G!
#560000
0!
0l
0m
1<
#570000
1!
1l
1m
0<
0j!
1i!
0k!
1I!
09!
1)!
0%!
0_!
0{
0\!
1Y!
0Z!
0[!
0e!
0]!
1f!
1g!
1S
0'!
1p
0K!
0H!
1;!
18!
0/!
0(!
1h
0d
1b
0a
14
08
1:
0;
03!
1+!
1R
0O
0K
1M
1J
1I
0G
0F
0D
06!
1.!
1/!
1(!
1L!
0<!
10!
04!
15!
0.!
1H!
0D!
1C!
1@!
1O
0M
1K
0?!
1<!
0I
1G
08!
00!
0O
0K
1?!
0<!
0G!
1D!
0H!
#580000
0!
0l
0m
1<
#590000
1!
1l
1m
0<
1k!
1M!
0I!
1A!
0=!
1_!
1$!
1z
0p
1[!
1^!
1a!
0g!
1O!
0L!
1K!
1H!
0C!
0@!
0?!
1<!
1i
0h
1f
0e
13
04
16
07
13!
0+!
1H
0G
14!
05!
1.!
0S!
0P!
0O!
1L!
1G!
0D!
1C!
1@!
0C
04!
0.!
1K
0<!
10!
0T!
1S!
1P!
0K!
0H!
0G!
1D!
1E
1D
16!
00!
0C!
0@!
1T!
1O!
0L!
1K!
1H!
18!
1G!
0D!
0S!
0P!
0O!
1L!
0K!
0H!
0T!
1S!
1P!
1O!
0L!
1T!
0S!
0P!
0T!
#600000
0!
0l
0m
1<
#610000
1!
1l
1m
0<
1j!
0k!
0U!
0Q!
0M!
0E!
0A!
19!
1%!
1,!
1`!
0_!
1\!
0c!
1Z!
0[!
0f!
0^!
0b!
1p
1T!
1S!
1P!
0O!
1L!
0G!
1D!
1C!
1@!
0;!
08!
0k
0j
0i
0g
0f
1d
1a
01
02
03
05
06
18
1;
0-!
03!
0R
1O
0L
0K
0N
1M
1I
0H
1G
06!
1C
14!
1Q
0T!
0P!
1K!
1H!
0D!
1<!
1.!
04!
0H!
1D!
1P
0@!
0Q
1?!
0<!
1;!
18!
0E
16!
1R
0L!
10!
06!
1@!
0?!
1<!
0G
0;!
08!
1H!
1;!
18!
0@!
0<!
#620000
0!
0l
0m
1<
#630000
1!
1l
1m
0<
1k!
1I!
1E!
11!
0`!
1'!
0$!
1{
0z
1w
0v
0p
1[!
1]!
0a!
0K!
0H!
1G!
0D!
17!
00!
1h
1g
1c
14
15
19
1-!
0/!
0(!
0x
1G
1E
0,!
1L!
1H!
0;!
08!
0.!
10!
1?!
1H
0G
00!
1@!
1K
0?!
1<!
#640000
0!
0l
0m
1<
#650000
1!
1l
1m
0<
0j!
0h!
0i!
0k!
1M!
0E!
1A!
1=!
09!
01!
0)!
0%!
0{
0w
0\!
0Y!
0Z!
0[!
0]!
1x
0X!
0S
0'!
1p
1O!
0L!
0G!
1D!
0C!
0@!
1?!
0<!
1;!
18!
07!
10!
1/!
1(!
1i
0g
1f
1e
0d
0c
0b
0a
13
05
16
17
08
09
0:
0;
0x
0R
0O
0K
0M
0I
0H
1G
0E
1Q
0(!
1P!
0H!
1G!
0D!
1@!
0?!
1<!
08!
00!
0G!
1D!
1C!
0P
1O
1L
1?!
0<!
0G
1R
0R
0O
0C!
0@!
0?!
1<!
1K!
1H!
1C!
1@!
0O!
1L!
0D!
0P!
#660000
0!
0l
0m
1<
#670000
1!
1l
1m
0<
1k!
1$!
1z
0p
1a!
#680000
0!
0l
0m
1<
#690000
1!
1l
1m
0<
1j!
0k!
1%!
1,!
1`!
1\!
1]!
1f!
1^!
1p
1a
1;
0-!
1R
1O
1K
1E
16!
14!
1.!
0K!
0H!
1D!
0C!
0@!
1G
18!
0D
06!
10!
1O!
0L!
1G!
0D!
1?!
0<!
1H
0G
08!
1P!
1H!
1@!
0L
0K
0?!
1<!
1P
0O
1C!
0R
0G!
1K!
0O!
1L!
0P!
#700000
0!
0l
0m
1<
#710000
1!
1l
1m
0<
1k!
11!
0`!
1_!
1'!
0$!
1{
0z
1v
0p
0a!
1g!
17!
00!
1c
19
1-!
1+!
1(!
0,!
15!
0.!
18!
16!
07!
10!
#720000
0!
0l
0m
1<
#730000
1!
1l
1m
0<
0j!
1i!
0k!
19!
1)!
0%!
0_!
0{
0\!
1e!
0]!
0f!
0^!
0g!
0'!
1p
0;!
08!
0/!
0(!
1d
1b
0a
18
1:
0;
0+!
1R
0P
1O
1L
1K
06!
04!
05!
1.!
1/!
1(!
1?!
0<!
17!
00!
0.!
0K!
0H!
0R
1D!
0O
0C!
1D
07!
10!
1O!
0L!
1K!
1H!
0H
1G
1;!
18!
1P!
0O!
1L!
0K
1<!
0<!
0P!
0@!
#740000
0!
0l
0m
1<
#750000
1!
1l
1m
0<
1k!
1E!
0A!
0=!
1_!
1$!
1z
0p
1a!
1g!
1G!
0D!
1C!
1@!
0?!
1<!
1g
0f
0e
15
06
07
1+!
1.!
0K!
0H!
0G!
1D!
0@!
15!
0.!
17!
00!
1O!
0L!
1K!
1H!
16!
07!
10!
0;!
08!
1P!
0O!
1L!
1?!
0<!
0P!
1@!
#760000
0!
0l
0m
1<
#770000
1!
1l
1m
0<
1j!
0k!
1A!
09!
1%!
1,!
1`!
0_!
1\!
1Y!
1c!
1Z!
0e!
1]!
1f!
1b!
1p
0C!
0@!
1;!
18!
1f
0d
1a
16
08
1;
0-!
1R
1O
1K
1N
1I
0D
06!
0Q
1G!
0D!
0?!
1<!
1.!
0K!
1D!
1Q
0L
0K
1H
0G
08!
0R
17!
00!
1O!
0L!
1R
1P
0O
1C!
1@!
1K
0<!
0H!
18!
1P!
1H!
0R
0G!
0C!
0@!
1K!
1G!
0D!
0O!
1L!
0K!
0H!
0P!
1O!
0L!
1P!
#780000
0!
0l
0m
1<
#790000
1!
1l
1m
0<
1k!
1Q!
0M!
0I!
0E!
0A!
19!
01!
0`!
1'!
0$!
1{
0z
1w
0v
0p
1[!
0f!
1^!
0a!
0S!
0P!
0O!
1L!
1K!
1H!
0G!
1D!
1C!
1@!
0;!
08!
07!
10!
1j
0i
0h
0g
0f
1d
0c
12
03
04
05
06
18
09
1-!
0/!
0(!
1x
1G
1D
16!
14!
0,!
1T!
1S!
1P!
0L!
0H!
0D!
1<!
1;!
18!
0.!
17!
00!
0G
0;!
08!
0D
06!
0T!
07!
10!
1G
1;!
18!
1?!
0<!
0?!
1<!
0C!
0@!
1C!
1@!
1D!
0D!
#800000
0!
0l
0m
1<
#810000
1!
1l
1m
0<
0j!
1h!
0i!
0k!
1A!
1=!
11!
0)!
0%!
0{
0w
0\!
0Y!
0c!
0Z!
1d!
0[!
1e!
0]!
1f!
0^!
0x
1X!
0'!
1p
0C!
0@!
1?!
0<!
17!
00!
1/!
1(!
1f
1e
1c
0b
0a
16
17
19
0:
0;
1x
1R
0P
1O
0K
0N
0G
16!
04!
0Q
0(!
1D!
1@!
0;!
08!
07!
10!
1H!
1G!
0D!
0@!
1Q
06!
0K!
0H!
0R
1;!
18!
1L!
1K!
1H!
0?!
1<!
0L!
1C!
1@!
0G!
1D!
0H!
#820000
0!
0l
0m
1<
#830000
1!
1l
1m
0<
1k!
1E!
1$!
1z
0p
1[!
0f!
1^!
1a!
1G!
0D!
1g
15
1G
1D
16!
14!
1H!
1?!
0<!
0G
0;!
08!
0D
06!
0C!
0@!
1G
1;!
18!
1D!
#840000
0!
0l
0m
1<
