111-1/0922/HW1_CSA/simulation/qsim/HW1_CSA.msim.vcd
$comment
	File created using the following command:
		vcd file HW1_CSA.msim.vcd -direction
$end
$date
	Thu Sep 22 16:08:46 2022
$end
$version
	ModelSim Version 10.1d
$end
$timescale
	1ps
$end
$scope module HW1_CSA_vlg_vec_tst $end
$var reg 16 ! A [15:0] $end
$var reg 16 " B [15:0] $end
$var reg 16 # Cin [15:0] $end
$var wire 1 $ Cout $end
$var wire 1 % SUM [16] $end
$var wire 1 & SUM [15] $end
$var wire 1 ' SUM [14] $end
$var wire 1 ( SUM [13] $end
$var wire 1 ) SUM [12] $end
$var wire 1 * SUM [11] $end
$var wire 1 + SUM [10] $end
$var wire 1 , SUM [9] $end
$var wire 1 - SUM [8] $end
$var wire 1 . SUM [7] $end
$var wire 1 / SUM [6] $end
$var wire 1 0 SUM [5] $end
$var wire 1 1 SUM [4] $end
$var wire 1 2 SUM [3] $end
$var wire 1 3 SUM [2] $end
$var wire 1 4 SUM [1] $end
$var wire 1 5 SUM [0] $end
$var wire 1 6 sampler $end
$scope module i1 $end
$var wire 1 7 gnd $end
$var wire 1 8 vcc $end
$var wire 1 9 unknown $end
$var tri1 1 : devclrn $end
$var tri1 1 ; devpor $end
$var tri1 1 < devoe $end
$var wire 1 = A[14]~input_o $end
$var wire 1 > B[12]~input_o $end
$var wire 1 ? B[13]~input_o $end
$var wire 1 @ Cin[13]~input_o $end
$var wire 1 A A[11]~input_o $end
$var wire 1 B A[9]~input_o $end
$var wire 1 C Cin[9]~input_o $end
$var wire 1 D A[6]~input_o $end
$var wire 1 E B[7]~input_o $end
$var wire 1 F Cin[7]~input_o $end
$var wire 1 G B[4]~input_o $end
$var wire 1 H A[5]~input_o $end
$var wire 1 I Cin[5]~input_o $end
$var wire 1 J B[3]~input_o $end
$var wire 1 K Cin[3]~input_o $end
$var wire 1 L B[1]~input_o $end
$var wire 1 M Cout~output_o $end
$var wire 1 N SUM[0]~output_o $end
$var wire 1 O SUM[1]~output_o $end
$var wire 1 P SUM[2]~output_o $end
$var wire 1 Q SUM[3]~output_o $end
$var wire 1 R SUM[4]~output_o $end
$var wire 1 S SUM[5]~output_o $end
$var wire 1 T SUM[6]~output_o $end
$var wire 1 U SUM[7]~output_o $end
$var wire 1 V SUM[8]~output_o $end
$var wire 1 W SUM[9]~output_o $end
$var wire 1 X SUM[10]~output_o $end
$var wire 1 Y SUM[11]~output_o $end
$var wire 1 Z SUM[12]~output_o $end
$var wire 1 [ SUM[13]~output_o $end
$var wire 1 \ SUM[14]~output_o $end
$var wire 1 ] SUM[15]~output_o $end
$var wire 1 ^ SUM[16]~output_o $end
$var wire 1 _ A[15]~input_o $end
$var wire 1 ` Cin[15]~input_o $end
$var wire 1 a D16|WideXor0~0_combout $end
$var wire 1 b A[12]~input_o $end
$var wire 1 c Cin[12]~input_o $end
$var wire 1 d D13|WideOr0~0_combout $end
$var wire 1 e D13|WideXor0~0_combout $end
$var wire 1 f B[11]~input_o $end
$var wire 1 g Cin[11]~input_o $end
$var wire 1 h D12|WideXor0~2_cout $end
$var wire 1 i D12|WideXor0~4 $end
$var wire 1 j D12|WideXor0~6 $end
$var wire 1 k D12|WideXor0~8 $end
$var wire 1 l D12|WideXor0~9_combout $end
$var wire 1 m A[13]~input_o $end
$var wire 1 n D14|WideXor0~2_cout $end
$var wire 1 o D14|WideXor0~4 $end
$var wire 1 p D14|WideXor0~6 $end
$var wire 1 q D14|WideXor0~8 $end
$var wire 1 r D14|WideXor0~9_combout $end
$var wire 1 s B[15]~input_o $end
$var wire 1 t E16|c~combout $end
$var wire 1 u A[0]~input_o $end
$var wire 1 v Cin[0]~input_o $end
$var wire 1 w B[0]~input_o $end
$var wire 1 x D1|WideXor0~0_combout $end
$var wire 1 y A[1]~input_o $end
$var wire 1 z Cin[1]~input_o $end
$var wire 1 { D2|WideXor0~2_cout $end
$var wire 1 | D2|WideXor0~3_combout $end
$var wire 1 } E1|s~combout $end
$var wire 1 ~ B[2]~input_o $end
$var wire 1 !! Cin[2]~input_o $end
$var wire 1 "! A[2]~input_o $end
$var wire 1 #! D3|WideXor0~0_combout $end
$var wire 1 $! E1|c~combout $end
$var wire 1 %! D2|WideXor0~4 $end
$var wire 1 &! D2|WideXor0~5_combout $end
$var wire 1 '! A[3]~input_o $end
$var wire 1 (! D4|WideXor0~2_cout $end
$var wire 1 )! D4|WideXor0~3_combout $end
$var wire 1 *! D3|WideOr0~0_combout $end
$var wire 1 +! D2|WideXor0~6 $end
$var wire 1 ,! D2|WideXor0~7_combout $end
$var wire 1 -! D2|WideXor0~8 $end
$var wire 1 .! D2|WideXor0~9_combout $end
$var wire 1 /! A[4]~input_o $end
$var wire 1 0! Cin[4]~input_o $end
$var wire 1 1! D5|WideXor0~0_combout $end
$var wire 1 2! D4|WideXor0~4 $end
$var wire 1 3! D4|WideXor0~5_combout $end
$var wire 1 4! D5|WideOr0~0_combout $end
$var wire 1 5! B[5]~input_o $end
$var wire 1 6! D6|WideXor0~2_cout $end
$var wire 1 7! D6|WideXor0~3_combout $end
$var wire 1 8! D4|WideXor0~6 $end
$var wire 1 9! D4|WideXor0~7_combout $end
$var wire 1 :! D4|WideXor0~8 $end
$var wire 1 ;! D4|WideXor0~9_combout $end
$var wire 1 <! Cin[6]~input_o $end
$var wire 1 =! B[6]~input_o $end
$var wire 1 >! D7|WideXor0~0_combout $end
$var wire 1 ?! D6|WideXor0~4 $end
$var wire 1 @! D6|WideXor0~5_combout $end
$var wire 1 A! A[7]~input_o $end
$var wire 1 B! D8|WideXor0~2_cout $end
$var wire 1 C! D8|WideXor0~3_combout $end
$var wire 1 D! D7|WideOr0~0_combout $end
$var wire 1 E! D6|WideXor0~6 $end
$var wire 1 F! D6|WideXor0~7_combout $end
$var wire 1 G! B[8]~input_o $end
$var wire 1 H! Cin[8]~input_o $end
$var wire 1 I! A[8]~input_o $end
$var wire 1 J! D9|WideXor0~0_combout $end
$var wire 1 K! D6|WideXor0~8 $end
$var wire 1 L! D6|WideXor0~9_combout $end
$var wire 1 M! D8|WideXor0~4 $end
$var wire 1 N! D8|WideXor0~5_combout $end
$var wire 1 O! D9|WideOr0~0_combout $end
$var wire 1 P! B[9]~input_o $end
$var wire 1 Q! D10|WideXor0~2_cout $end
$var wire 1 R! D10|WideXor0~3_combout $end
$var wire 1 S! D8|WideXor0~6 $end
$var wire 1 T! D8|WideXor0~7_combout $end
$var wire 1 U! D8|WideXor0~8 $end
$var wire 1 V! D8|WideXor0~9_combout $end
$var wire 1 W! A[10]~input_o $end
$var wire 1 X! Cin[10]~input_o $end
$var wire 1 Y! B[10]~input_o $end
$var wire 1 Z! D11|WideXor0~0_combout $end
$var wire 1 [! D10|WideXor0~4 $end
$var wire 1 \! D10|WideXor0~5_combout $end
$var wire 1 ]! D12|WideXor0~3_combout $end
$var wire 1 ^! D11|WideOr0~0_combout $end
$var wire 1 _! D10|WideXor0~6 $end
$var wire 1 `! D10|WideXor0~7_combout $end
$var wire 1 a! D10|WideXor0~8 $end
$var wire 1 b! D10|WideXor0~9_combout $end
$var wire 1 c! D12|WideXor0~5_combout $end
$var wire 1 d! D14|WideXor0~3_combout $end
$var wire 1 e! D12|WideXor0~7_combout $end
$var wire 1 f! Cin[14]~input_o $end
$var wire 1 g! B[14]~input_o $end
$var wire 1 h! D15|WideXor0~0_combout $end
$var wire 1 i! D14|WideXor0~5_combout $end
$var wire 1 j! D15|WideOr0~0_combout $end
$var wire 1 k! D14|WideXor0~7_combout $end
$var wire 1 l! E16|s~combout $end
$upscope $end
$upscope $end
$enddefinitions $end
#0
$dumpvars
b1111111111111111 !
b1111111111111111 "
b1111111111111111 #
1$
15
04
13
12
11
10
1/
1.
1-
1,
1+
1*
1)
1(
1'
1&
0%
x6
07
18
x9
1:
1;
1<
1=
1>
1?
1@
1A
1B
1C
1D
1E
1F
1G
1H
1I
1J
1K
1L
1M
1N
0O
1P
1Q
1R
1S
1T
1U
1V
1W
1X
1Y
1Z
1[
1\
1]
0^
1_
1`
1a
1b
1c
1d
1e
1f
1g
1h
0i
1j
0k
1l
1m
1n
0o
1p
0q
1r
1s
1t
1u
1v
1w
1x
1y
1z
1{
1|
0}
1~
1!!
1"!
1#!
1$!
0%!
1&!
1'!
1(!
1)!
1*!
1+!
1,!
0-!
1.!
1/!
10!
11!
02!
13!
14!
15!
16!
17!
18!
19!
0:!
1;!
1<!
1=!
1>!
0?!
1@!
1A!
1B!
1C!
1D!
1E!
1F!
1G!
1H!
1I!
1J!
0K!
1L!
0M!
1N!
1O!
1P!
1Q!
1R!
1S!
1T!
0U!
1V!
1W!
1X!
1Y!
1Z!
0[!
1\!
1]!
1^!
1_!
1`!
0a!
1b!
1c!
1d!
1e!
1f!
1g!
1h!
1i!
1j!
1k!
0l!
$end
#10000
b111111111111111 !
b11111111111111 !
b1111111111111 !
b111111111111 !
b11111111111 !
b11011111111 !
b11001111111 !
b11001011111 !
b11001001111 !
b11001001110 !
b111111111111111 "
b11111111111111 "
b10111111111111 "
b10011111111111 "
b10010111111111 "
b10010101111111 "
b10010101011111 "
b10010101010111 "
b10010101010011 "
b10010101010001 "
b10010101010000 "
b111111111111111 #
b11111111111111 #
b11011111111111 #
b11001111111111 #
b11001011111111 #
b11001001111111 #
b11001000111111 #
b11001000110111 #
b11001000110101 #
0z
0K
0<!
0F
0H!
0X!
0g
0f!
0`
0w
0L
0~
0J
05!
0E
0P!
0f
0>
0g!
0s
0u
0/!
0H
0A!
0I!
0A
0b
0m
0=
0_
06
0{
0(!
0>!
0B!
0O!
0Z!
0h
0j!
0h!
0a
0$!
0|
0#!
0)!
1?!
1M!
0R!
1i
0d
01!
0d!
1l!
0t
1}
1%!
1|
12!
1)!
0E!
0C!
1U!
0]!
1q
0+!
1k
1^
0M
1O
1%
0$
14
0\!
0i!
0}
0,!
0N!
0c!
03!
08!
1K!
0V!
0r
0l
0X
0\
0O
0Q
0V
0Z
0R
0+
0'
04
02
0-
0)
01
0&!
1}
13!
0`!
0L!
0_!
0p
0P
1O
1R
0Y
03
14
11
0*
09!
1\!
0l!
1i!
0S!
1a!
0S
1X
0^
1\
00
1+
0%
1'
1N!
1`!
0k!
0b!
1V
1Y
0]
1-
1*
0&
0T!
0j
0W
0,
1c!
1Z
1)
0e!
0[
0(
#20000
b1001001110 !
b1001110 !
b1110 !
b1010 !
b1000 !
b10000101010000 "
b10000001010000 "
b10000000010000 "
b10000000000000 "
b11001000010101 #
b1000000000001000 !
b1100000000001000 !
b1100100000001000 !
b1100100010001000 !
b1100100010101000 !
b1100100010111000 !
b1100100010111001 !
b1010000000000000 "
b1011000000000000 "
b1011100000000000 "
b1011101000000000 "
b1011101010000000 "
b1011101010100000 "
b1011001000010101 #
b1011101000010101 #
b1011111000010101 #
b1011111001010101 #
b1011111001011101 #
1K
0I
1<!
1X!
1g
1`
0G
15!
0=!
1E
0G!
1P!
0Y!
1f
1>
1s
1u
0y
0"!
1/!
1H
0D
1A!
0B
0W!
1A
1=
1_
16
1(!
06!
0D!
1>!
0^!
1Z!
1h
1a
0?!
0M!
0J!
0i
0e
1d
1$!
0|
0*!
1#!
1h!
1l!
0}
0x
02!
0)!
07!
1E!
1_!
1]!
1+!
0$!
1-!
1p
1^
0O
0N
1%
04
05
0F!
0`!
0\!
1k!
1e!
1}
1,!
0i!
18!
1:!
0a!
0+!
0.!
0q
0U
0Y
0X
1]
1[
1O
1Q
0\
0.
0*
0+
1&
1(
14
12
0'
03!
19!
1F!
1&!
0k!
0:!
0;!
1b!
08!
1r
0R
1S
1U
1P
0]
01
10
1.
13
0&
09!
0,!
13!
1;!
1j
1:!
0S
0Q
1R
00
02
11
0@!
0c!
19!
0l!
1t
0k
0;!
0T
0Z
1S
0^
1M
0/
0)
10
0%
1$
1@!
0e!
1l
1T
0[
1/
0(
0@!
0T
0/
1i!
1\
1'
#30000
b1001101010100000 "
b1001111001011101 #
b1001111001001101 #
b1001111001001001 #
b1110100010111001 !
b1110100110111001 !
b1001101010101000 "
b1101111001001001 #
b1101111001001011 #
b1110110110111001 !
b1110111110111001 !
b1110111111111001 !
b1001111010101000 "
b1001111011101000 "
b1101111001101011 #
b110111111111001 !
b10111111111001 !
b10011111111001 !
b10011101111001 !
b10011101011001 !
b10011101001001 !
b10011101001000 !
b1111011101000 "
b1110011101000 "
b1110001101000 "
b101111001101011 #
b101011001101011 #
b101011000101011 #
0u
0/!
0H
1D
0A!
1I!
1B
1W!
0A
1m
0=
0_
1z
0!!
00!
1I
0<!
0g
0@
1f!
0`
1J
1=!
0E
0P!
1Y!
0?
0s
06
04!
1?!
17!
1D!
0>!
1M!
1J!
1^!
0]!
0a
1{
0#!
16!
0h
0n
1)!
0}
1x
1l!
0t
0E!
0K!
1q
1|
0?!
07!
1i
1]!
1o
1d!
0O
1N
1^
0M
04
15
1%
0$
0F!
1k!
0&!
1,!
1K!
1L!
0r
0j
0U
1]
0P
1Q
0.
1&
03
12
1F!
1}
1@!
09!
1c!
1`!
0i!
1e!
0L!
1S!
1U
1O
1T
0S
1Z
1Y
0\
1[
1.
14
1/
00
1)
1*
0'
1(
0N!
0l!
0e!
0S!
0V
0^
0[
0-
0%
0(
1N!
1T!
1V
1W
1-
1,
0T!
0W
0,
#40000
b101010000101011 #
b11011101001000 !
b1110001101001 "
b101010100101011 #
b11011101001100 !
b1110101101001 "
b1110101111001 "
b110101111001 "
b10110101111001 "
b101010100101111 #
b1011101001100 !
b1011001001100 !
b1010100101111 #
b1010100101101 #
b10100101111001 "
b10100100111001 "
b1010100001101 #
b1011011001100 !
b1011011001101 !
b10100110111001 "
b1001010100001101 #
b1001110100001101 #
b1001110101001101 #
1w
1G
0=!
1E
1G!
0Y!
0>
1?
1u
1"!
1A!
0I!
1b
0m
0z
1!!
0I
1<!
1H!
0C
1g
0f!
1`
16
1$!
11!
0M!
1O!
0J!
0Z!
1*!
0{
06!
0Q!
1h
0h!
1a
0}
18!
0_!
0-!
0|
1?!
17!
1[!
1R!
0i
0]!
0p
0q
0O
04
1&!
03!
1T!
1\!
0,!
1i!
0k!
0:!
1a!
1.!
0$!
0U!
1j
1q
1r
1P
0R
1W
1X
0Q
1\
0]
13
01
1,
1+
02
1'
0&
1}
0@!
0\!
0T!
0c!
1k!
1;!
0b!
1V!
0r
1O
0T
0X
0W
0Z
1]
14
0/
0+
0,
0)
1&
13!
0&!
1e!
1l!
0j
1R
0P
1[
1^
11
03
1(
1%
1@!
1c!
1\!
0l!
1T
1Z
1X
0^
1/
1)
1+
0%
0e!
0[
0(
#50000
b1000110101001101 #
b1000110101001100 #
b10100110111101 "
b10100110111111 "
b1000110111001100 #
b1011011001111 !
b10000110111111 "
b1001011011001111 !
b1001111011001111 !
b1001111011101111 !
b1001111011111111 !
b10001110111111 "
b1001111011111011 !
b11001110111111 "
b1000110111001000 #
b1011111011111011 !
b1011111111111011 !
b1000110111001010 #
b11011110111111 "
b11011111111111 "
b1000110111101010 #
b1011111101111011 !
b1000110110101010 #
1y
0"!
1/!
1H
0A!
1I!
1A
1m
1_
1L
1~
1=!
1P!
1Y!
0f
1>
0v
1z
0!!
1I
0<!
1F
0c
06
0%!
0*!
1#!
14!
01!
0?!
07!
1M!
1C!
1J!
0o
0d!
0a
0[!
0R!
1Z!
1{
16!
1B!
1l!
0x
1+!
1-!
1E!
0K!
1p
1k
1_!
1U!
1|
17!
0M!
0C!
1^
0N
1%
05
1,!
03!
0@!
0F!
0i!
1e!
0k!
1T!
0-!
0.!
1L!
0l
0a!
0V!
1$!
1S!
1Q
0R
0T
0U
0\
1[
0]
1W
12
01
0/
0.
0'
1(
0&
1,
0,!
1k!
0`!
0}
19!
0N!
1.!
08!
0p
1b!
0U!
0Q
1]
0Y
0O
1S
0V
02
1&
0*
04
10
0-
13!
1N!
1i!
0\!
1&!
0T!
18!
1j
1V!
1R
1V
1\
0X
1P
0W
11
1-
1'
0+
13
0,
03!
09!
0k!
0c!
0k
0R
0S
0]
0Z
01
00
0&
0)
19!
0e!
1\!
1l
1S
0[
1X
10
0(
1+
1p
0i!
0\
0'
1k!
1]
1&
#60000
b1011111101110011 !
b111011111111111 "
b111011111011111 "
b111011111010111 "
b1011101101110011 !
b1111011111010111 "
b1000111110101010 #
b1000111010101010 #
b1100111010101010 #
b1011101101110010 !
b1111011101010111 "
b1101111010101010 #
b1111011101010011 "
b1101111000101010 #
b1011101101110110 !
b1110011101010011 "
b1011101001110110 !
b1110001101010011 "
b1110001100010011 "
b1011101011110110 !
0F
0H!
1C
1c
1f!
0~
0J
05!
0=!
0E
0Y!
0>
1g!
1s
0u
1"!
0'!
1A!
0I!
0W!
16
0B!
0O!
1Q!
1j!
12!
07!
0D!
1>!
0^!
1a
0$!
1}
1x
1M!
1C!
1U!
1R!
0q
08!
1K!
1a!
1O
1N
14
15
1T!
13!
09!
1F!
1@!
1`!
0&!
0K!
0V!
0U!
1r
1:!
0L!
0b!
1W
1R
0S
1U
1T
1Y
0P
1,
11
00
1.
1/
1*
03
0N!
0F!
0T!
19!
1L!
1V!
0;!
0S!
0j
0V
0U
0W
1S
0-
0.
0,
10
0\!
0l!
1t
1N!
1c!
1S!
1U!
1k
0X
0^
1M
1V
1Z
0+
0%
1$
1-
1)
0N!
1\!
0@!
1T!
1e!
0U!
0V!
0l
0V
1X
0T
1W
1[
0-
1+
0/
1,
1(
0T!
1V!
0p
0W
0,
0\!
1i!
0X
1\
0+
1'
1\!
0k!
1X
0]
1+
0&
#70000
b1101101000101010 #
b1101101000100010 #
b1101101000110010 #
b1011101010110110 !
b1111101010110110 !
b1110001100010010 "
b1110001000010010 "
b1110001000000010 "
b1100001000000010 "
b1101101000110011 #
b1100001000000000 "
b1111101010110100 !
b1100101000000000 "
b1111101010010100 !
b1111101010000100 !
b1100100000000000 "
b1101101000110111 #
b1101101010000100 !
b1101101000010111 #
b1101101010001100 !
b1000100000000000 "
b1000100000100000 "
b1000100000101000 "
b100000101000 "
b1101101100010111 #
b1001101100010111 #
b1101101010001101 !
b100010101000 "
b1000101100010111 #
b100010101100 "
b1000101110010111 #
b1101101010001001 !
b1101101110001001 !
b100011101100 "
b1101101100001001 !
0w
0L
1~
1J
0G
15!
1=!
1E
0G!
0P!
1f
0?
0g!
0s
1u
0y
0"!
1'!
0/!
0H
0D
0A!
1I!
0m
1=
1v
1!!
0K
10!
0I
1F
1H!
0X!
0c
0f!
06
1$!
1%!
1*!
0#!
02!
04!
11!
1O!
0J!
0R!
1]!
1o
0j!
1h!
0a
0(!
06!
1B!
0Z!
1e
0d
0}
0x
0+!
18!
0S!
0a!
1q
0)!
1?!
17!
0M!
0C!
1j
0O
0N
04
05
1&!
1,!
09!
1N!
0`!
0\!
0c!
0e!
1-!
0:!
1U!
1b!
0r
0E!
1S!
1K!
1P
1Q
0S
1V
0Y
0X
0Z
0[
13
12
00
1-
0*
0+
0)
0(
1T!
1@!
0N!
1F!
1e!
0.!
1;!
0V!
0U!
0L!
1W
1T
0V
1U
1[
1,
1/
0-
1.
1(
1c!
1l!
0t
0F!
0T!
1E!
0_!
1V!
0S!
1Z
1^
0M
0U
0W
1)
1%
0$
0.
0,
03!
0@!
1\!
1N!
1a!
1_!
1U!
0R
0T
1X
1V
01
0/
1+
1-
1F!
1`!
0\!
1T!
0b!
0a!
0V!
1U
1Y
0X
1W
1.
1*
0+
1,
0`!
1b!
0_!
0Y
0*
0c!
1\!
1a!
0Z
1X
0)
1+
1c!
1`!
0b!
1Z
1Y
1)
1*
0c!
0Z
0)
#80000
b1010101110010111 #
b1101100100001001 !
b10101110010111 #
b10001110010111 #
b101100100001001 !
b101110100001001 !
b10000110010111 #
b110011101100 "
b1110100001001 !
b10110011101100 "
b10000110010110 #
b1110100001011 !
b10010011101100 "
b10011011101100 "
b10000110010010 #
b1110100000011 !
b110011011101100 "
b110011011100100 "
b110011001100100 "
b11000110010010 #
b110011001100000 "
b11000100010010 #
b1110100000111 !
b1110000000111 !
b110011000100000 "
0~
0J
0=!
0E
1P!
1Y!
0f
1?
1g!
1y
1"!
0'!
0I!
0B
1W!
0=
0_
0v
0!!
0F
0C
0g
1c
1@
0`
16
0*!
1#!
12!
0>!
1M!
1C!
1^!
0]!
1d!
0%!
0|
0O!
1J!
0$!
0B!
0Q!
0h
0e
1d
1n
0l!
1}
1x
1+!
08!
0E!
0K!
0k
0C!
1[!
1R!
1i
1]!
0j
0o
0d!
0^
1O
1N
0%
14
15
0,!
0&!
13!
1@!
0F!
0}
0T!
1c!
1:!
1K!
1L!
1l
0a!
1k
1p
0Q
0P
1R
1T
0U
0O
0W
1Z
02
03
11
1/
0.
04
0,
1)
1,!
19!
0\!
1T!
0c!
0`!
0i!
0;!
0L!
1S!
1b!
0l
1Q
1S
0X
1W
0Z
0Y
0\
12
10
0+
1,
0)
0*
0'
0N!
1i!
1k!
0S!
0U!
0V
1\
1]
0-
1'
1&
0@!
1N!
0T!
1c!
0i!
1U!
1V!
0T
1V
0W
1Z
0\
0/
1-
0,
1)
0'
1T!
0V!
1W
1,
1\!
1X
1+
0\!
0X
0+
#90000
b1010000000111 !
b11000100010000 #
b11000100011000 #
b11000100001000 #
b110011000110000 "
b1010000010111 !
b11010000010111 !
b11000000001000 #
b11011000010111 !
b1011011000010111 !
b1011001000010111 !
b11001000001000 #
b10011000110000 "
b10011000111000 "
b10011010111000 "
b1011001000010011 !
1J
1G
1E
0g!
0z
1K
00!
0H!
1C
0"!
1/!
1B
0W!
0A
1m
1_
06
1)!
14!
01!
1C!
0h!
0{
1(!
0J!
1Q!
0#!
0[!
0R!
0^!
1Z!
0]!
1d!
1a
0-!
0:!
0p
1%!
1|
02!
0)!
1R!
0+!
1_!
1a!
0k
0q
0,!
09!
03!
1F!
1i!
0N!
1&!
0T!
0e!
0k!
1.!
1;!
1q
1-!
0b!
1l
1r
0Q
0S
0R
1U
1\
0V
1P
0W
0[
0]
02
00
01
1.
1'
0-
13
0,
0(
0&
1k!
0&!
1}
13!
1T!
1`!
18!
0r
0.!
1p
1]
0P
1O
1R
1W
1Y
1&
03
14
11
1,
1*
03!
1@!
0c!
0i!
1l!
08!
0q
0R
1T
0Z
0\
1^
01
1/
0)
0'
1%
19!
0l!
13!
0k!
1r
1S
0^
1R
0]
10
0%
11
0&
09!
0S
00
1l!
1^
1%
#100000
b11001001001000 #
b11011010111000 "
b1011001001010011 !
b11011010111010 "
b1011001001110011 !
b11001001101000 #
b11011010011010 "
b111001001101000 #
b1011001011110011 !
b101001001101000 #
b1101001001101000 #
b11001010011010 "
b1001010011010 "
b1101001001101001 #
b1101010011010 "
b1100001001101001 #
b1011101011110011 !
b1100001001101011 #
b1100001001100011 #
b1101010001010 "
b1011100011110011 !
b11100011110011 !
b11110011110011 !
b1100000001100011 #
b101101010001010 "
b101101010000010 "
b101101000000010 "
1H
1D
1A!
0B
1W!
1A
0_
1L
0J
0G
05!
0E
0Y!
1f
1>
0?
1g!
1v
1z
0K
1I
1<!
0C
0c
0@
1f!
1`
16
1D!
0R!
0i
0%!
0|
12!
1)!
04!
11!
0d!
1j!
1$!
1{
0(!
16!
0Q!
0n
0}
0x
0K!
1+!
0$!
1:!
1k
1|
0)!
0?!
07!
1[!
1R!
1o
1d!
0O
0N
04
05
0F!
0T!
1c!
1}
1,!
19!
1e!
1k!
1L!
0+!
0;!
0l
1$!
1E!
0_!
0p
0k
0U
0W
1Z
1O
1Q
1S
1[
1]
0.
0,
1)
14
12
10
1(
1&
1&!
0}
0@!
09!
1\!
1T!
1i!
0e!
0E!
1+!
1l
1P
0O
0T
0S
1X
1W
1\
0[
13
04
0/
00
1+
1,
1'
0(
1N!
0,!
1@!
0i!
0&!
1F!
0`!
0k!
1V
0Q
1T
0\
0P
1U
0Y
0]
1-
02
1/
0'
03
1.
0*
0&
0F!
1,!
1i!
0U
1Q
1\
0.
12
1'
#110000
b1100010001100011 #
b11110011110010 !
b1100110001100011 #
b111110011110010 !
b101100000000010 "
b1100110001100111 #
b101100000000110 "
b101100001000110 "
b111110011100010 !
b111110011100110 !
b1100110000100111 #
b100100001000110 "
b111110011000110 !
b1000110000100111 #
b100110001000110 "
b1000110000100101 #
b111111011000110 !
b1000111000100101 #
b110001000110 "
1~
1=!
0P!
1Y!
0>
0g!
0u
1"!
0/!
0H
1B
1=
0z
1!!
0<!
1C
1X!
1g
0f!
06
1*!
1#!
1^!
1e
0d
0j!
1h!
0$!
01!
1?!
17!
0{
1Q!
1h
1}
1x
0-!
1j
1k
1q
1p
0|
0[!
0R!
1]!
1O
1N
14
15
0,!
1`!
0c!
1e!
1k!
0i!
03!
0@!
19!
1.!
0k
0l
0r
0q
1_!
0a!
0Q
1Y
0Z
1[
1]
0\
0R
0T
1S
02
1*
0)
1(
1&
0'
01
0/
10
0e!
0k!
0}
0\!
0T!
0`!
1l
0p
1r
1b!
0[
0]
0O
0X
0W
0Y
0(
0&
04
0+
0,
0*
13!
1i!
0l!
1`!
1p
1q
1R
1\
0^
1Y
11
1'
0%
1*
0i!
1k!
1l!
1c!
0q
0r
0\
1]
1^
1Z
0'
1&
1%
1)
0k!
1r
0]
0&
0l!
0^
0%
1l!
1^
1%
#120000
b110111011000110 !
b110001000111 "
b110101000111 "
b110111011000100 !
b1000111010100101 #
b110111111000100 !
b1000111010110101 #
b100111111000100 !
b110101000101 "
b100111101000100 !
b1010111010110101 #
b10110101000101 "
b1010111010110100 #
b100011101000100 !
b1010111010111100 #
b10110101010101 "
b10110111010101 "
b100011101000101 !
b1010111010111000 #
b10110111010001 "
b10110110010001 "
b100011101000001 !
b11110110010001 "
b1010111010111010 #
b100010101000001 !
b1010110010111010 #
0v
1z
0!!
1K
10!
1F
0C
1@
1w
0L
0~
1G
0=!
1E
1G!
1>
1?
1u
0y
0"!
0A!
1I!
0B
0A
0b
0m
16
1{
0*!
0#!
1(!
14!
1B!
0Q!
1n
1%!
0D!
1>!
1O!
1[!
1R!
0]!
1}
0x
1|
1-!
0+!
1)!
0:!
0M!
0C!
0R!
0o
0d!
1K!
0U!
0_!
1O
0N
14
05
1,!
09!
1F!
1@!
1\!
0`!
1$!
0.!
1;!
1S!
1U!
1k
0L!
1V!
1a!
1Q
0S
1U
1T
1X
0Y
12
00
1.
1/
1+
0*
0}
0N!
0F!
1T!
1i!
1e!
1`!
1E!
0U!
0V!
0l
0S!
1_!
0b!
0O
0V
0U
1W
1\
1[
1Y
04
0-
0.
1,
1'
1(
1*
1&!
03!
0@!
0T!
1N!
0\!
1V!
0_!
1U!
0a!
1P
0R
0T
0W
1V
0X
13
01
0/
0,
1-
0+
1F!
1\!
0i!
1T!
0`!
0c!
1_!
1a!
0V!
1b!
1U
1X
0\
1W
0Y
0Z
1.
1+
0'
1,
0*
0)
0\!
1`!
0a!
0b!
0_!
0X
1Y
0+
1*
0`!
1\!
1c!
1b!
1a!
0Y
1X
1Z
0*
1+
1)
0c!
1`!
0b!
0Z
1Y
0)
1*
1c!
1Z
1)
0c!
0Z
0)
#130000
b100010101001001 !
b1010110010011010 #
b10110010011010 #
b11010110010001 "
b11110010011010 #
b100000101001001 !
b11010110011001 "
b11011110011001 "
b111011110011001 "
b101000101001001 !
b101000001001001 !
b11110010001010 #
b111011110011011 "
b101000011001001 !
b1110010001010 #
b1110010001011 #
b1110010000011 #
b111011110001011 "
b101000011001101 !
b1110010000001 #
1L
1J
0G
1P!
0f
1g!
1v
0z
0K
00!
0I
1c
0@
0`
1"!
1'!
1A!
0I!
0W!
1b
06
0%!
0|
02!
04!
1R!
1i
1]!
1j!
0h!
0{
0(!
06!
1d
0n
0a
1#!
1C!
0O!
1J!
0Z!
1x
1+!
0$!
1:!
0j
0a!
0p
1%!
1|
0)!
07!
0k
1o
1d!
0K!
1S!
1N
15
1}
13!
19!
1c!
0`!
1i!
0e!
0F!
0N!
0\!
0+!
0;!
1b!
1q
1$!
1l
1L!
0U!
1O
1R
1S
1Z
0Y
1\
0[
0U
0V
0X
14
11
10
1)
0*
1'
0(
0.
0-
0+
1k!
0}
09!
0i!
0T!
0E!
1j
0r
1+!
1V!
1]
0O
0S
0\
0W
1&
04
00
0'
0,
0,!
1@!
0c!
0&!
1i!
1N!
1K!
0Q
1T
0Z
0P
1\
1V
02
1/
0)
03
1'
1-
1F!
1e!
0l!
1,!
1\!
0L!
1U
1[
0^
1Q
1X
1.
1(
0%
12
1+
0N!
0V
0-
