111-1/0929/HW3_Shoot_Darts/simulation/qsim/HW3_Shoot_Darts.msim.vcd
$comment
	File created using the following command:
		vcd file HW3_Shoot_Darts.msim.vcd -direction
$end
$date
	Wed Oct 05 11:15:12 2022
$end
$version
	ModelSim Version 10.1d
$end
$timescale
	1ps
$end
$scope module HW3_Shoot_Darts_vlg_vec_tst $end
$var reg 4 ! x1 [3:0] $end
$var reg 4 " x2 [3:0] $end
$var reg 4 # x3 [3:0] $end
$var reg 4 $ x4 [3:0] $end
$var reg 4 % y1 [3:0] $end
$var reg 4 & y2 [3:0] $end
$var reg 4 ' y3 [3:0] $end
$var reg 4 ( y4 [3:0] $end
$var wire 1 ) A [2] $end
$var wire 1 * A [1] $end
$var wire 1 + A [0] $end
$var wire 1 , B [2] $end
$var wire 1 - B [1] $end
$var wire 1 . B [0] $end
$var wire 1 / C [2] $end
$var wire 1 0 C [1] $end
$var wire 1 1 C [0] $end
$var wire 1 2 D [2] $end
$var wire 1 3 D [1] $end
$var wire 1 4 D [0] $end
$var wire 1 5 Max [2] $end
$var wire 1 6 Max [1] $end
$var wire 1 7 Max [0] $end
$var wire 1 8 sampler $end
$scope module i1 $end
$var wire 1 9 gnd $end
$var wire 1 : vcc $end
$var wire 1 ; unknown $end
$var tri1 1 < devclrn $end
$var tri1 1 = devpor $end
$var tri1 1 > devoe $end
$var wire 1 ? A1|Add5~4_combout $end
$var wire 1 @ A1|Add5~7 $end
$var wire 1 A A1|Add5~8_combout $end
$var wire 1 B A1|Add2~4_combout $end
$var wire 1 C A1|Add3~8_combout $end
$var wire 1 D A1|Add0~4_combout $end
$var wire 1 E B1|Add5~0_combout $end
$var wire 1 F B1|Add2~0_combout $end
$var wire 1 G B1|Add2~4_combout $end
$var wire 1 H B1|Add2~7 $end
$var wire 1 I B1|Add2~8_combout $end
$var wire 1 J B1|Add3~8_combout $end
$var wire 1 K B1|Add0~0_combout $end
$var wire 1 L C1|Add5~2_combout $end
$var wire 1 M C1|Add2~7 $end
$var wire 1 N C1|Add3~4_combout $end
$var wire 1 O C1|Add2~8_combout $end
$var wire 1 P C1|Add3~9 $end
$var wire 1 Q C1|Add3~10_combout $end
$var wire 1 R C1|Add0~0_combout $end
$var wire 1 S D1|Add5~6_combout $end
$var wire 1 T D1|Add2~4_combout $end
$var wire 1 U D1|Add2~6_combout $end
$var wire 1 V D1|Add3~9 $end
$var wire 1 W D1|Add3~10_combout $end
$var wire 1 X D1|Add0~0_combout $end
$var wire 1 Y A1|Add4~1_combout $end
$var wire 1 Z A1|Add4~2_combout $end
$var wire 1 [ B1|Add4~3_combout $end
$var wire 1 \ C1|Add4~2_combout $end
$var wire 1 ] x2[2]~input_o $end
$var wire 1 ^ x3[0]~input_o $end
$var wire 1 _ x4[2]~input_o $end
$var wire 1 ` x4[0]~input_o $end
$var wire 1 a A[0]~output_o $end
$var wire 1 b A[1]~output_o $end
$var wire 1 c A[2]~output_o $end
$var wire 1 d B[0]~output_o $end
$var wire 1 e B[1]~output_o $end
$var wire 1 f B[2]~output_o $end
$var wire 1 g C[0]~output_o $end
$var wire 1 h C[1]~output_o $end
$var wire 1 i C[2]~output_o $end
$var wire 1 j D[0]~output_o $end
$var wire 1 k D[1]~output_o $end
$var wire 1 l D[2]~output_o $end
$var wire 1 m Max[0]~output_o $end
$var wire 1 n Max[1]~output_o $end
$var wire 1 o Max[2]~output_o $end
$var wire 1 p x1[3]~input_o $end
$var wire 1 q x1[2]~input_o $end
$var wire 1 r y1[2]~input_o $end
$var wire 1 s x1[0]~input_o $end
$var wire 1 t A1|Add2~1 $end
$var wire 1 u A1|Add2~3 $end
$var wire 1 v A1|Add2~5 $end
$var wire 1 w A1|Add2~6_combout $end
$var wire 1 x A1|Add2~2_combout $end
$var wire 1 y A1|Add2~0_combout $end
$var wire 1 z A1|Add3~1 $end
$var wire 1 { A1|Add3~3 $end
$var wire 1 | A1|Add3~5 $end
$var wire 1 } A1|Add3~6_combout $end
$var wire 1 ~ A1|Add2~7 $end
$var wire 1 !! A1|Add2~8_combout $end
$var wire 1 "! A1|Add3~7 $end
$var wire 1 #! A1|Add3~9 $end
$var wire 1 $! A1|Add3~10_combout $end
$var wire 1 %! A1|Add3~4_combout $end
$var wire 1 &! A1|Add3~2_combout $end
$var wire 1 '! A1|Add3~0_combout $end
$var wire 1 (! A1|LessThan2~0_combout $end
$var wire 1 )! A1|LessThan2~1_combout $end
$var wire 1 *! y1[1]~input_o $end
$var wire 1 +! y1[3]~input_o $end
$var wire 1 ,! A1|Add4~0_combout $end
$var wire 1 -! x1[1]~input_o $end
$var wire 1 .! A1|Add4~3_combout $end
$var wire 1 /! A1|Add5~1 $end
$var wire 1 0! A1|Add5~3 $end
$var wire 1 1! A1|Add5~5 $end
$var wire 1 2! A1|Add5~6_combout $end
$var wire 1 3! y1[0]~input_o $end
$var wire 1 4! A1|Add5~2_combout $end
$var wire 1 5! A1|Add5~0_combout $end
$var wire 1 6! A1|Add6~0_combout $end
$var wire 1 7! A1|Decoder0~0_combout $end
$var wire 1 8! A1|Add0~1 $end
$var wire 1 9! A1|Add0~2_combout $end
$var wire 1 :! A1|Add0~0_combout $end
$var wire 1 ;! A1|LessThan0~0_combout $end
$var wire 1 <! A1|Add0~3 $end
$var wire 1 =! A1|Add0~5 $end
$var wire 1 >! A1|Add0~6_combout $end
$var wire 1 ?! A1|Add0~7 $end
$var wire 1 @! A1|Add0~8_combout $end
$var wire 1 A! A1|WideOr2~2_combout $end
$var wire 1 B! A1|Decoder0~1_combout $end
$var wire 1 C! A1|WideOr1~0_combout $end
$var wire 1 D! x2[3]~input_o $end
$var wire 1 E! y2[3]~input_o $end
$var wire 1 F! y2[2]~input_o $end
$var wire 1 G! x2[0]~input_o $end
$var wire 1 H! B1|Add0~1 $end
$var wire 1 I! B1|Add0~3 $end
$var wire 1 J! B1|Add0~5 $end
$var wire 1 K! B1|Add0~7 $end
$var wire 1 L! B1|Add0~8_combout $end
$var wire 1 M! y2[0]~input_o $end
$var wire 1 N! y2[1]~input_o $end
$var wire 1 O! B1|Add4~1_combout $end
$var wire 1 P! B1|Add4~2_combout $end
$var wire 1 Q! B1|Add5~1 $end
$var wire 1 R! B1|Add5~3 $end
$var wire 1 S! B1|Add5~4_combout $end
$var wire 1 T! B1|Add5~2_combout $end
$var wire 1 U! B1|Add6~0_combout $end
$var wire 1 V! B1|Add4~0_combout $end
$var wire 1 W! B1|Add5~5 $end
$var wire 1 X! B1|Add5~7 $end
$var wire 1 Y! B1|Add5~8_combout $end
$var wire 1 Z! B1|Add5~6_combout $end
$var wire 1 [! B1|Decoder0~0_combout $end
$var wire 1 \! B1|Add0~4_combout $end
$var wire 1 ]! B1|Add0~2_combout $end
$var wire 1 ^! B1|LessThan0~0_combout $end
$var wire 1 _! B1|Add0~6_combout $end
$var wire 1 `! B1|WideOr2~2_combout $end
$var wire 1 a! B1|Decoder0~1_combout $end
$var wire 1 b! x2[1]~input_o $end
$var wire 1 c! B1|Add2~1 $end
$var wire 1 d! B1|Add2~2_combout $end
$var wire 1 e! B1|Add3~1 $end
$var wire 1 f! B1|Add3~3 $end
$var wire 1 g! B1|Add3~4_combout $end
$var wire 1 h! B1|Add3~0_combout $end
$var wire 1 i! B1|Add3~2_combout $end
$var wire 1 j! B1|LessThan2~0_combout $end
$var wire 1 k! B1|Add2~3 $end
$var wire 1 l! B1|Add2~5 $end
$var wire 1 m! B1|Add2~6_combout $end
$var wire 1 n! B1|Add3~5 $end
$var wire 1 o! B1|Add3~7 $end
$var wire 1 p! B1|Add3~9 $end
$var wire 1 q! B1|Add3~10_combout $end
$var wire 1 r! B1|Add3~6_combout $end
$var wire 1 s! B1|LessThan2~1_combout $end
$var wire 1 t! B1|WideOr1~0_combout $end
$var wire 1 u! y3[1]~input_o $end
$var wire 1 v! y3[3]~input_o $end
$var wire 1 w! y3[2]~input_o $end
$var wire 1 x! C1|Add4~0_combout $end
$var wire 1 y! C1|Add4~1_combout $end
$var wire 1 z! x3[1]~input_o $end
$var wire 1 {! y3[0]~input_o $end
$var wire 1 |! C1|Add4~3_combout $end
$var wire 1 }! C1|Add5~1 $end
$var wire 1 ~! C1|Add5~3 $end
$var wire 1 !" C1|Add5~5 $end
$var wire 1 "" C1|Add5~6_combout $end
$var wire 1 #" x3[3]~input_o $end
$var wire 1 $" C1|Add5~7 $end
$var wire 1 %" C1|Add5~8_combout $end
$var wire 1 &" C1|Add5~4_combout $end
$var wire 1 '" C1|Add5~0_combout $end
$var wire 1 (" C1|Add6~0_combout $end
$var wire 1 )" C1|Decoder0~0_combout $end
$var wire 1 *" C1|Add0~1 $end
$var wire 1 +" C1|Add0~2_combout $end
$var wire 1 ," x3[2]~input_o $end
$var wire 1 -" C1|Add0~3 $end
$var wire 1 ." C1|Add0~4_combout $end
$var wire 1 /" C1|LessThan0~0_combout $end
$var wire 1 0" C1|Add0~5 $end
$var wire 1 1" C1|Add0~7 $end
$var wire 1 2" C1|Add0~8_combout $end
$var wire 1 3" C1|Add0~6_combout $end
$var wire 1 4" C1|WideOr2~2_combout $end
$var wire 1 5" C1|Add2~1 $end
$var wire 1 6" C1|Add2~2_combout $end
$var wire 1 7" C1|Add2~0_combout $end
$var wire 1 8" C1|Add3~1 $end
$var wire 1 9" C1|Add3~2_combout $end
$var wire 1 :" C1|Add3~0_combout $end
$var wire 1 ;" C1|LessThan2~0_combout $end
$var wire 1 <" C1|Add2~3 $end
$var wire 1 =" C1|Add2~5 $end
$var wire 1 >" C1|Add2~6_combout $end
$var wire 1 ?" C1|Add2~4_combout $end
$var wire 1 @" C1|Add3~3 $end
$var wire 1 A" C1|Add3~5 $end
$var wire 1 B" C1|Add3~7 $end
$var wire 1 C" C1|Add3~8_combout $end
$var wire 1 D" C1|Add3~6_combout $end
$var wire 1 E" C1|LessThan2~1_combout $end
$var wire 1 F" C1|Decoder0~1_combout $end
$var wire 1 G" C1|WideOr1~0_combout $end
$var wire 1 H" y4[3]~input_o $end
$var wire 1 I" y4[2]~input_o $end
$var wire 1 J" y4[1]~input_o $end
$var wire 1 K" D1|Add0~1 $end
$var wire 1 L" D1|Add0~3 $end
$var wire 1 M" D1|Add0~5 $end
$var wire 1 N" D1|Add0~6_combout $end
$var wire 1 O" y4[0]~input_o $end
$var wire 1 P" D1|Add4~2_combout $end
$var wire 1 Q" D1|Add4~3_combout $end
$var wire 1 R" D1|Add5~1 $end
$var wire 1 S" D1|Add5~2_combout $end
$var wire 1 T" D1|Add4~1_combout $end
$var wire 1 U" D1|Add5~3 $end
$var wire 1 V" D1|Add5~4_combout $end
$var wire 1 W" D1|Add5~0_combout $end
$var wire 1 X" D1|Add6~0_combout $end
$var wire 1 Y" x4[1]~input_o $end
$var wire 1 Z" D1|Add2~1 $end
$var wire 1 [" D1|Add2~2_combout $end
$var wire 1 \" D1|Add2~0_combout $end
$var wire 1 ]" D1|Add3~1 $end
$var wire 1 ^" D1|Add3~2_combout $end
$var wire 1 _" D1|Add3~3 $end
$var wire 1 `" D1|Add3~4_combout $end
$var wire 1 a" D1|Add3~0_combout $end
$var wire 1 b" D1|LessThan2~0_combout $end
$var wire 1 c" x4[3]~input_o $end
$var wire 1 d" D1|Add2~3 $end
$var wire 1 e" D1|Add2~5 $end
$var wire 1 f" D1|Add2~7 $end
$var wire 1 g" D1|Add2~8_combout $end
$var wire 1 h" D1|Add3~5 $end
$var wire 1 i" D1|Add3~7 $end
$var wire 1 j" D1|Add3~8_combout $end
$var wire 1 k" D1|Add3~6_combout $end
$var wire 1 l" D1|LessThan2~1_combout $end
$var wire 1 m" D1|Add4~0_combout $end
$var wire 1 n" D1|Add5~5 $end
$var wire 1 o" D1|Add5~7 $end
$var wire 1 p" D1|Add5~8_combout $end
$var wire 1 q" D1|Decoder0~0_combout $end
$var wire 1 r" D1|Add0~7 $end
$var wire 1 s" D1|Add0~8_combout $end
$var wire 1 t" D1|Add0~4_combout $end
$var wire 1 u" D1|Add0~2_combout $end
$var wire 1 v" D1|LessThan0~0_combout $end
$var wire 1 w" D1|WideOr2~2_combout $end
$var wire 1 x" D1|Decoder0~1_combout $end
$var wire 1 y" D1|WideOr1~0_combout $end
$var wire 1 z" temp2[0]~0_combout $end
$var wire 1 {" temp1[2]~0_combout $end
$var wire 1 |" Max~8_combout $end
$var wire 1 }" temp2[2]~1_combout $end
$var wire 1 ~" Max~9_combout $end
$var wire 1 !# Max~10_combout $end
$upscope $end
$upscope $end
$enddefinitions $end
#0
$dumpvars
b110 !
b1 "
b11 #
b1010 $
b111 %
b1100 &
b110 '
b0 (
0+
0*
0)
0.
1-
1,
01
10
1/
04
13
12
07
16
15
x8
09
1:
x;
1<
1=
1>
0?
0@
0A
1B
0C
0D
1E
1F
1G
0H
1I
0J
1K
0L
0M
1N
0O
0P
0Q
0R
1S
1T
0U
0V
0W
0X
1Y
0Z
0[
0\
0]
1^
0_
0`
0a
0b
0c
0d
1e
1f
0g
1h
1i
0j
1k
1l
0m
1n
1o
0p
1q
1r
0s
1t
0u
0v
1w
0x
1y
1z
1{
1|
0}
1~
1!!
0"!
1#!
0$!
0%!
1&!
0'!
1(!
1)!
1*!
0+!
1,!
1-!
0.!
0/!
10!
11!
02!
13!
14!
05!
16!
07!
08!
09!
1:!
1;!
0<!
1=!
1>!
1?!
0@!
0A!
1B!
0C!
0D!
1E!
1F!
1G!
0H!
1I!
0J!
1K!
1L!
0M!
0N!
0O!
1P!
0Q!
1R!
0S!
1T!
1U!
0V!
0W!
1X!
0Y!
0Z!
0[!
1\!
1]!
1^!
1_!
0`!
0a!
0b!
0c!
0d!
0e!
1f!
0g!
1h!
0i!
1j!
0k!
1l!
1m!
1n!
0o!
1p!
0q!
0r!
1s!
1t!
1u!
0v!
1w!
1x!
1y!
1z!
0{!
1|!
1}!
0~!
1!"
0""
0#"
0$"
0%"
0&"
0'"
1("
0)"
1*"
1+"
0,"
0-"
1."
1/"
00"
11"
02"
03"
04"
15"
06"
07"
08"
09"
0:"
1;"
0<"
1="
0>"
0?"
1@"
0A"
1B"
0C"
0D"
1E"
0F"
1G"
0H"
0I"
0J"
0K"
1L"
0M"
1N"
0O"
0P"
0Q"
0R"
1S"
0T"
1U"
0V"
0W"
1X"
1Y"
1Z"
1["
0\"
0]"
1^"
1_"
0`"
0a"
1b"
1c"
1d"
0e"
1f"
0g"
1h"
1i"
0j"
1k"
1l"
0m"
0n"
1o"
1p"
0q"
1r"
1s"
0t"
1u"
1v"
0w"
0x"
1y"
0z"
1{"
0|"
1}"
0~"
1!#
$end
#10000
b10 !
b0 !
b11 "
b10 "
b100 &
b110 &
b1 #
b0 #
b1110 '
b1010 '
b1110 $
b100 (
b110 (
1J"
1I"
1_
0w!
1v!
0^
0z!
1N!
0E!
0G!
1b!
0-!
0q
08
1m"
1\"
1T"
1Q"
1X
0d"
0["
0L"
0u"
1V"
1t"
0T
1-"
0y!
0x!
1\
1?"
12"
13"
10"
0."
1O
1>"
17"
0}!
1'"
0*"
1R
1~!
1L
1V!
0P!
1O!
1[
1c!
0L!
0_!
0\!
0I
0m!
0G
0E
1k!
1d!
0R!
0T!
0I!
0]!
1<!
19!
04!
1x
0=!
1D
1v
0B
01!
1?
0p"
0o"
0S
1a"
1n"
0V"
1W"
1T
0^"
1M"
0t"
0X"
0h"
1`"
00"
1."
0!"
1%"
1$"
1""
1A"
0N
01"
03"
1Q
1C"
1D"
1:"
0+"
1Y!
1Z!
1R!
1T!
1W!
1E
0k!
0d!
1q!
0p!
1J
1o!
1r!
0n!
1g!
0l!
1G
1i!
1\!
0D
06!
0{
0&!
0>!
0~
0w
0|
1%!
1@
12!
1p"
1S
1X"
1h"
0`"
0r"
0N"
0k"
11"
13"
0""
0%"
0B"
0D"
02"
0E"
0W!
1S!
0X!
0Z!
1l!
0G
0i!
0s!
0q!
0J
0r!
1H
1m!
1n!
0g!
1|
0%!
0B!
0!!
1"!
1A
1k"
0s"
12"
1F"
1P
0C"
1X!
1Z!
0U!
0Y!
1[!
0H
0m!
0n!
1g!
1s!
1I
0o!
1}
0(!
1$!
0#!
0G"
0t!
1C!
0F"
0Q
1Y!
0[!
0I
1o!
1q!
1p!
0)!
0$!
0i
0h
0f
0e
1c
1b
0/
00
0,
0-
1)
1*
1t!
1`!
1E"
0p!
0s!
1)!
1|"
1f
1e
1d
1,
1-
1.
0`!
0C!
0q!
0|"
0d
0c
0b
0.
0)
0*
1G"
0t!
1C!
1~"
1s!
1i
1h
0f
0e
1c
1b
1m
1/
10
0,
0-
1)
1*
17
0~"
0m
07
1t!
1f
1e
1,
1-
#20000
b1 !
b11 %
b110 "
b1000 #
b1100 #
b1011 '
b110 $
b100 $
b11 !
b100 "
b100 &
b1110 #
b1111 #
b1111 '
b0 $
b10 (
0I"
0N!
0Y"
0_
0c"
1{!
1w!
1^
1z!
1,"
1#"
0b!
1]
0r
1s
1-!
18
1P"
1L"
1P!
0[
0K
0F
0S"
0n"
1V"
0M"
1t"
1e"
0T
1s"
0p"
1g"
1r"
1N"
1U
0S
18"
0:"
0("
0|!
0\
0-"
07"
1}!
0'"
1*"
0R
0~!
0L
0?"
10"
0."
1&"
02"
01"
03"
1%"
1""
0O
0>"
1d!
0T!
1I!
1]!
1W!
0S!
1J!
0\!
0l!
1G
1u
1Z
18!
0:!
15!
0y
14!
1S"
0t"
1T!
0E
0h!
0X"
1o"
1S
0N"
0f"
0U
0h"
1`"
1W
1j"
0s"
0i"
0k"
19"
0;"
0}!
1'"
1."
08"
1:"
1+"
1!"
0&"
0A"
1N
13"
12"
1Q
0P
1C"
1B"
1D"
1i!
1U!
0J!
1\!
0X!
0Z!
1_!
1H
1m!
1n!
0g!
0v
1B
00!
04!
0<!
09!
0z
1'!
1p"
0g"
1i"
0l"
1V
0j"
1;"
0E"
1~!
1L
1("
09"
0$"
0""
0D"
0Q
0C"
0_!
0Y!
1a!
1I
0o!
1~
1w
1%!
11!
0?
1D
1{
1&!
1(!
0V
1E"
1)"
0!"
1&"
0("
0%"
0a!
1q!
1p!
1!!
0"!
0}
0@
02!
16!
0%!
0y"
0G"
0t!
0W
0)"
1$"
1""
0s!
0q!
1$!
1#!
0A
0}"
0l
0k
0i
0h
0f
0e
02
03
0/
00
0,
0-
1G"
14"
1t!
1l"
1%"
1s!
0)!
0$!
1}"
1z"
1i
1h
1g
1f
1e
1/
10
11
1,
1-
04"
0t!
1)!
0z"
0g
0f
0e
01
0,
0-
1y"
1t!
0C!
1~"
1l
1k
1f
1e
0c
0b
1m
12
13
1,
1-
0)
0*
17
1C!
0~"
1c
1b
0m
1)
1*
07
#30000
b1011 !
b1011 %
b1001 %
b101 &
b1 $
b1010 (
b1011 (
b1111 !
b101 "
b111 '
b1101 %
b111 #
b110 '
b1001 $
b1011 $
b1101 !
b111 "
b111 &
b110 #
b1111 $
b1111 (
0^
0#"
0{!
0v!
1G!
1b!
1O"
1I"
1H"
1`
1Y"
1_
1c"
1M!
1N!
0*!
1r
1+!
0-!
1q
1p
08
17"
0'"
0*"
1R
11"
0%"
0""
0:"
1|!
1y!
1x!
0="
1?"
0."
1H!
1E
0d!
0R!
0T!
0I!
0]!
0m"
1]"
0a"
0T"
0Q"
0P"
0L"
0r"
1M"
0\"
1R"
0W"
1K"
0X
0U"
0S"
1n"
0V"
0p"
0o"
0S
1h!
0P!
08!
1:!
1.!
0,!
0t
1y
0Z
0Y
0u
0?!
1=!
10!
14!
1?
1A
12!
1:"
0+"
02"
1'"
1!"
0&"
1%"
1""
1M
1>"
1A"
0N
1]!
0i!
1S!
1J!
0\!
1^"
0R"
1W"
1t"
1s"
1N"
0]"
1a"
1X"
1u"
1R!
1T!
1<!
19!
1/!
05!
0A
02!
0x
1z
0'!
04!
01!
1v
0B
1@!
1>!
06!
1F"
1("
0$"
0""
1O
0B"
0U!
1_!
1U"
1S"
0^"
0S!
0D
14!
1@
12!
0~
0w
0|
1%!
0%"
1Q
1P
1a!
0n"
1V"
0X"
1A
0!!
1"!
0G"
0E"
0Q
1o"
1S
1$!
0#!
0i
0h
0/
00
0t!
1E"
1p"
0)!
0$!
0f
0e
0,
0-
1)!
0C!
0{"
0c
0b
0)
0*
1C!
1{"
1c
1b
1)
1*
#40000
b1111 "
b1111 &
b1101 (
b10 #
b10 '
b101 !
b101 %
b1110 &
b1110 $
b101 (
b100 (
b1 !
b1110 "
b1 %
b11 '
b1100 $
b11 #
b0 (
0`
0Y"
0r
0+!
0q
0p
1{!
0w!
1^
0,"
0O"
0J"
0I"
0H"
0M!
1E!
0G!
1D!
18
0W"
0K"
0S"
1L"
09!
1,!
1u
1x
1Z
1Y
1?!
0=!
0?
0A
02!
18"
0:"
0("
0|!
1\
1<"
16"
1-"
1+"
07"
1}!
0'"
1*"
0R
1="
0?"
00"
1."
0!"
1&"
0a"
0s"
1g"
0N"
0t"
1f"
1U
0e"
1T
0h!
0V!
1U!
0O!
1[
0K!
1\!
1l!
0G
0H!
1K
1F
0E
1Y!
1Z!
0u"
0M"
1t"
1A
12!
0v
1B
0{
0&!
00!
04!
1?
0@!
0>!
16!
0@"
0;"
0}!
1'"
0~!
0="
1?"
0."
08"
1:"
0-"
0+"
0M
0>"
0A"
1N
03"
1$"
1""
1W
1j"
0g"
1k"
0U
1h"
0`"
0Y!
0Z!
0W!
1S!
1E
1L!
0H
0m!
0n!
1g!
0]!
1h!
1r"
1N"
1~
1w
1|
11!
0?
06!
1A"
0E"
0L
1!"
0&"
1M
1>"
1@"
19"
1;"
1."
0O
1B"
0F"
1%"
0l"
0W
0j"
1X!
1Z!
0U!
0a!
0I
1o!
1s"
1x"
1!!
0"!
0@
02!
16!
0B"
1("
0$"
0""
1O
0N
1E"
1Q
0P
1l"
1Y!
1q!
0p!
0y"
1t!
0x"
1$!
1#!
0A
1P
0%"
0E"
0s!
0q!
0}"
0l
0k
1f
1e
02
03
1,
1-
1G"
0)!
0$!
0Q
1s!
1}"
1i
1h
1/
10
1y"
0G"
0t!
1)!
1E"
1l
1k
0i
0h
0f
0e
12
13
0/
00
0,
0-
0C!
1t!
0c
0b
1f
1e
0)
0*
1,
1-
1C!
1G"
1c
1b
1i
1h
1)
1*
1/
10
#50000
b1011 '
b1011 #
b1000 $
b110 "
b110 &
b1111 #
b1111 '
b1001 !
b1001 %
b111 &
b1001 $
b1 (
b1101 !
b111 "
b1101 %
b101 (
1O"
1I"
1r
1+!
1q
1p
1M!
0E!
1G!
0D!
1`
0_
1,"
1#"
1w!
1v!
08
1m"
0b"
1a"
1T"
1Q"
1["
1u"
19!
0,!
0u
0x
0Z
0Y
0?!
1=!
1?
1A
12!
1e!
0h!
1V!
1O!
0[
1K!
0\!
0l!
1G
1H!
0K
0F
1Q!
0E
0Y!
0Z!
0Z"
1\"
1W"
1X
0V"
0t"
1e"
0T
10"
1&"
01"
1%"
1""
0<"
06"
1+"
0y!
0x!
0\
0p"
0o"
0S
1b"
1V"
1R"
0W"
1^"
0A
02!
1v
0B
1{
1&!
10!
14!
0?
1@!
1>!
06!
1i!
1Y!
1Z!
1W!
0S!
0Q!
1E
0L!
1H
1m!
1n!
0g!
1]!
0e!
1h!
0R!
0T!
0["
1]"
0a"
1X"
1U
0h"
1`"
13"
0("
12"
1="
0?"
09"
0&"
0%"
0""
1~!
1L
1p"
0X"
1S"
0~
0w
0|
01!
1?
16!
0X!
0Z!
1U!
1R!
1T!
1a!
1I
0o!
0i!
1S!
0M
0>"
0A"
1N
0!"
1&"
0!!
1"!
1@
12!
06!
0Y!
0S!
0U!
1q!
1p!
0O
1B"
1$"
1""
0t!
1$!
0#!
1A
0s!
0q!
1Q
0P
1%"
0f
0e
0,
0-
0)!
0$!
1s!
0E"
0Q
1)!
1E"
0C!
0G"
0{"
0c
0b
0i
0h
0)
0*
0/
00
1C!
1G"
1{"
1c
1b
1i
1h
1)
1*
1/
10
#60000
b1111 %
b1 $
b1111 !
b111 (
b1111 (
b1110 '
b1110 #
b1010 #
b1010 '
b110 &
b110 "
0G!
0M!
0^
0,"
0{!
0w!
1J"
1H"
1-!
0c"
1*!
18
0H!
1K
1F
0E
0h!
1U!
1[
17"
0'"
0*"
1R
1?"
0."
0&"
0:"
1|!
1\
1<"
16"
0+"
0m"
1Z"
0\"
0T"
0Q"
1K"
0X
1t"
0f"
1T
0<!
09!
00!
04!
1u
1x
0p"
1o"
1S
18!
0:!
0.!
1t
0y
0]!
1h!
1E
1:"
1("
1-"
1+"
1A"
0N
1'"
0~!
0L
0?"
19"
0S
1["
0]"
1a"
0V"
0R"
1W"
0L"
0u"
1g"
1h"
0`"
1D
11!
0?
0v
1B
0{
0&!
19!
0/!
15!
0u
0x
0z
1'!
00"
1."
1D"
1&"
0A"
1N
0S"
1M"
0t"
1W
1j"
0i"
0k"
0@
02!
16!
1~
1w
1|
10!
14!
1v
0B
1{
03"
0("
0D"
1X"
0r"
0N"
0l"
1V
0j"
0A
1!!
0"!
01!
1?
06!
0~
0w
0|
0s"
0W
1$!
1#!
1@
12!
0!!
1"!
0y"
1l"
0)!
1A
0#!
0l
0k
02
03
0$!
1y"
0C!
1)!
0{"
1l
1k
0c
0b
12
13
0)
0*
1C!
1{"
1c
1b
1)
1*
#70000
b10 '
b10 #
b101 $
b1110 "
b1110 &
b111 !
b111 %
b100 $
b1110 (
b11 !
b11 %
b1 %
b1 !
b1100 (
b1111 &
b1111 "
0O"
0J"
0*!
0r
0+!
0-!
0q
0p
1M!
1E!
1G!
1D!
0`
1_
0#"
0v!
08
0v"
0a"
1P"
0K"
08!
1:!
1.!
1,!
0t
1y
1Z
1Y
1<!
1?!
0=!
04!
0?
0A
02!
1e!
0h!
0V!
0U!
0O!
0[
0K!
1\!
1l!
0G
1H!
0K
0F
1Q!
0E
1Y!
1Z!
0W"
1V"
1t"
0T
11"
0%"
0""
0="
1?"
0."
1y!
1x!
1S"
1L"
1u"
09!
1/!
05!
1A
12!
1u
1x
1z
0'!
14!
1?
0D
0@!
0>!
16!
1i!
0j!
0Y!
0Z!
0W!
1S!
0Q!
1E
1L!
0H
0m!
0n!
1g!
1]!
0e!
1h!
0R!
0T!
1U!
0X"
1v"
0h"
1`"
02"
1M
1>"
1A"
0N
1!"
0&"
1%"
1""
0t"
00!
04!
06!
0v
1B
0{
1j!
0s!
1X!
1Z!
0U!
1R!
1T!
0a!
0I
1o!
0i!
1W!
0S!
1i"
1k"
1O
0B"
0$"
0""
1("
11!
0?
1~
1w
1|
1s!
1Y!
0W!
1S!
1q!
0p!
0X!
0Z!
0V
1j"
1Q
1P
0%"
0@
02!
16!
1!!
0"!
1X!
1Z!
0s!
0q!
0Y!
1W
0E"
0Q
1t!
0A
1$!
1#!
1Y!
1s!
0l"
1E"
1f
1e
1,
1-
0t!
0G"
0)!
0$!
0f
0e
0i
0h
0,
0-
0/
00
1t!
0y"
1G"
1)!
1f
1e
0l
0k
1i
1h
1,
1-
02
03
1/
10
0C!
0c
0b
0)
0*
1C!
1c
1b
1)
1*
#80000
b1011 &
b0 '
b1011 "
b0 #
b1001 "
b1001 &
b1000 (
b0 $
b1 "
b1 &
b1001 !
b1001 %
b1 $
b1101 !
b1101 %
b0 &
b0 "
1r
1+!
1q
1p
1`
0_
0I"
0z!
0G!
0b!
0]
0D!
0u!
0M!
0N!
0F!
0E!
18
19!
0,!
0u
0x
0Z
0Y
0?!
1=!
1?
1A
12!
0Z"
1\"
1W"
1X
0V"
0M"
1t"
1T
0["
1T"
0P"
0u"
0<"
06"
0+"
1~!
1L
0H!
0E
0T!
1I!
0S!
0J!
0Y!
0Z!
1K!
07"
0|!
0y!
0x!
0\
0R
0h!
0A
02!
1v
0B
1{
1&!
10!
14!
0?
1@!
1>!
06!
1d"
1["
1a"
1X"
1r"
1N"
1h"
0`"
0^"
1V"
0S"
1="
0?"
09"
0/"
0!"
0]!
1U!
0\!
0_!
0L!
0:"
0'"
1%"
1$"
1""
0L
0~
0w
0|
01!
1?
16!
0T
1^"
1s"
1x"
0i"
0k"
0X"
0M
0>"
0A"
1N
0""
0^!
0%"
0!!
1"!
1@
12!
06!
0h"
1`"
0x"
1V
0j"
0O
1B"
1$!
0#!
1A
1i"
1k"
0W
1Q
0P
0)!
0$!
0V
1j"
1l"
0E"
0Q
1)!
1W
1E"
0C!
1y"
0G"
0l"
0c
0b
1l
1k
0i
0h
0)
0*
12
13
0/
00
1C!
1G"
1c
1b
1i
1h
1)
1*
1/
10
0y"
0l
0k
02
03
#90000
b11 $
b100 #
b100 '
b1100 '
b1100 #
b100 &
b1110 '
b100 "
b1110 #
b1100 (
b10 $
b1001 !
b1001 %
b101 &
b101 "
0r
0q
1I"
1G!
1]
1M!
1F!
1u!
1w!
1v!
1z!
1,"
1#"
0`
1Y"
08
09!
1u
1x
1Z
0=!
1D
1B
0?
0T"
1P"
0L"
1K
0c!
1F
1E
1S!
1\!
0l!
1G
1h!
1^!
1V!
1O!
1[
1d!
1]!
17"
1|!
1R
0-"
01"
10"
1L
1&"
1%"
1""
1Z"
0\"
0W"
0X
1S"
0B
0{
0&!
00!
04!
0>!
1|
0%!
16!
0V"
0U"
0S"
1M"
0t"
0d!
1e!
0h!
0U!
1H
1m!
1n!
0g!
1Y!
1Z!
1W!
0S!
1Q!
0E
1i!
1:"
1'"
1/"
1."
12"
13"
0("
0d"
0["
0a"
0(!
1?
1}
1X"
1V"
0r"
0N"
0v"
1I
0o!
0X!
0Z!
1U!
1T!
1T
0^"
06!
0X"
0s"
1q!
1p!
0Y!
1h"
0`"
0s!
0q!
0i"
0k"
1s!
1V
0j"
0t!
0W
0f
0e
0,
0-
1t!
1l"
1f
1e
1,
1-
1y"
1l
1k
12
13
